verilog/tb/i2c_master_regread.vcd
$date
	Tue Apr 07 21:27:35 2026
$end
$version
	Icarus Verilog
$end
$timescale
	1ps
$end
$scope module tb_i2c_master_regread $end
$var wire 1 ! scl_in $end
$var wire 1 " scl_out $end
$var wire 1 # sda_in $end
$var wire 1 $ sda_out $end
$var wire 1 % sda_oe $end
$var wire 1 & sda_bus $end
$var wire 1 ' scl_oe $end
$var wire 1 ( scl_bus $end
$var wire 1 ) interrupt $end
$var wire 16 * cpu_dout [15:0] $end
$var parameter 7 + SLAVE_ADDR $end
$var parameter 4 , ST_ACK_HIGHR $end
$var parameter 4 - ST_ACK_HIGHW $end
$var parameter 4 . ST_ACK_LOWR $end
$var parameter 4 / ST_ACK_LOWW $end
$var parameter 4 0 ST_ACK_SETUPR $end
$var parameter 4 1 ST_ACK_SETUPW $end
$var parameter 4 2 ST_BIT_HIGH $end
$var parameter 4 3 ST_BIT_LOW $end
$var parameter 4 4 ST_BIT_SETUP $end
$var parameter 4 5 ST_IDLE $end
$var parameter 4 6 ST_START_1 $end
$var parameter 4 7 ST_START_2 $end
$var parameter 4 8 ST_START_3 $end
$var parameter 4 9 ST_STOP_1 $end
$var parameter 4 : ST_STOP_2 $end
$var parameter 4 ; ST_STOP_3 $end
$var reg 1 < clk $end
$var reg 16 = cpu_din [15:0] $end
$var reg 8 > expected_reg_index [7:0] $end
$var reg 1 ? rd_en $end
$var reg 4 @ reg_addr [3:0] $end
$var reg 1 A rst $end
$var reg 8 B slave_read_byte [7:0] $end
$var reg 1 C slave_scl_oe $end
$var reg 1 D slave_sda_oe $end
$var reg 1 E wr_en $end
$scope module dut $end
$var wire 1 < clk $end
$var wire 16 F cpu_din [15:0] $end
$var wire 1 ) interrupt $end
$var wire 1 G launch_cmd $end
$var wire 1 ? rd_en $end
$var wire 4 H reg_addr [3:0] $end
$var wire 1 A rst $end
$var wire 1 ! scl_in $end
$var wire 1 " scl_out $end
$var wire 1 # sda_in $end
$var wire 1 $ sda_out $end
$var wire 1 E wr_en $end
$var parameter 4 I ST_ACK_HIGHR $end
$var parameter 4 J ST_ACK_HIGHW $end
$var parameter 4 K ST_ACK_LOWR $end
$var parameter 4 L ST_ACK_LOWW $end
$var parameter 4 M ST_ACK_SETUPR $end
$var parameter 4 N ST_ACK_SETUPW $end
$var parameter 4 O ST_BIT_HIGH $end
$var parameter 4 P ST_BIT_LOW $end
$var parameter 4 Q ST_BIT_SETUP $end
$var parameter 4 R ST_IDLE $end
$var parameter 4 S ST_START_1 $end
$var parameter 4 T ST_START_2 $end
$var parameter 4 U ST_START_3 $end
$var parameter 4 V ST_STOP_1 $end
$var parameter 4 W ST_STOP_2 $end
$var parameter 4 X ST_STOP_3 $end
$var reg 1 Y ack_error $end
$var reg 4 Z bit_count [3:0] $end
$var reg 1 [ bus_active $end
$var reg 1 \ cmd_read $end
$var reg 1 ] cmd_read_nack $end
$var reg 1 ^ cmd_start $end
$var reg 1 _ cmd_stop $end
$var reg 1 ` cmd_write $end
$var reg 16 a cpu_dout [15:0] $end
$var reg 16 b divcnt [15:0] $end
$var reg 1 c done $end
$var reg 1 d enable $end
$var reg 1 e irq_enable $end
$var reg 1 f irq_pending $end
$var reg 1 g op_busy $end
$var reg 16 h prescale_reg [15:0] $end
$var reg 8 i rx_data_reg [7:0] $end
$var reg 8 j rx_shift [7:0] $end
$var reg 1 k rx_valid $end
$var reg 1 ' scl_oe $end
$var reg 1 % sda_oe $end
$var reg 1 l sm_tick $end
$var reg 4 m state [3:0] $end
$var reg 1 n stretch_enable $end
$var reg 8 o tx_data_reg [7:0] $end
$var reg 8 p tx_shift [7:0] $end
$upscope $end
$scope task clear_status_flags $end
$upscope $end
$scope task cpu_read $end
$var reg 4 q addr [3:0] $end
$upscope $end
$scope task cpu_write $end
$var reg 4 r addr [3:0] $end
$var reg 16 s data [15:0] $end
$upscope $end
$scope task show_status $end
$upscope $end
$scope task wait_done_and_check_ack $end
$var reg 256 t label [255:0] $end
$upscope $end
$upscope $end
$enddefinitions $end
$comment Show the parameter values. $end
$dumpall
b1111 X
b1110 W
b1101 V
b11 U
b10 T
b1 S
b0 R
b100 Q
b110 P
b101 O
b111 N
b1010 M
b1001 L
b1100 K
b1000 J
b1011 I
b1111 ;
b1110 :
b1101 9
b11 8
b10 7
b1 6
b0 5
b100 4
b110 3
b101 2
b111 1
b1010 0
b1001 /
b1100 .
b1000 -
b1011 ,
b1010000 +
$end
#0
$dumpvars
bx t
bx s
bx r
bx q
b0 p
b0 o
0n
b0 m
0l
0k
b0 j
b0 i
b0 h
0g
0f
0e
0d
0c
b0 b
b0 a
0`
0_
0^
0]
0\
0[
b0 Z
0Y
b0 H
0G
b0 F
0E
0D
0C
b111100 B
1A
b0 @
0?
b10000 >
b0 =
0<
b0 *
0)
1(
0'
1&
0%
0$
1#
0"
1!
$end
#5000
1<
#10000
0<
#15000
1<
#20000
0<
#25000
1<
#30000
0<
#35000
1<
#40000
0<
#45000
1<
#50000
b11 s
b0 r
0A
0<
#55000
1<
#60000
1E
b11 =
b11 F
0<
#65000
b11 *
b11 a
1e
1d
1<
#70000
b10 s
b10 r
0E
0<
#75000
1<
#80000
b0 *
b0 a
1E
b10 =
b10 F
b10 @
b10 H
0<
#85000
b10 *
b10 a
b10 h
1<
#90000
b10100000 s
b11 r
0E
0<
#95000
1<
#100000
b0 *
b0 a
1E
b10100000 =
b10100000 F
b11 @
b11 H
0<
#105000
b10100000 o
1<
#110000
b101 s
b100 r
0E
0<
#115000
1<
#120000
1G
1E
b101 =
b101 F
b100 @
b100 H
0<
#125000
0G
b101 *
b101 a
b1 m
1g
b111 Z
b10100000 p
1`
1^
1<
#130000
b10100110101010001000001010100100101010000100000001010110010000001000001010001000100010001010010001010000101011100101001 t
0E
0<
#135000
1l
b10 b
1<
#140000
0<
#145000
b10 m
b1 b
0l
1<
#150000
0<
#155000
b0 b
1<
#160000
0<
#165000
1l
b10 b
1<
#170000
0<
#175000
0#
0&
b11 m
1%
b1 b
0l
1<
#180000
0<
#185000
b0 b
1<
#190000
0<
#195000
1l
b10 b
1<
#200000
0<
#205000
0!
0(
b101 *
b101 a
b100 m
1[
1'
b1 b
0l
1<
#210000
0<
#215000
b0 b
1<
#220000
0<
#225000
1l
b10 b
1<
#230000
0<
#235000
1#
1&
b101 m
0%
b1 b
0l
1<
#240000
0<
#245000
b0 b
1<
#250000
0<
#255000
1l
b10 b
1<
#260000
0<
#265000
1!
1(
b110 m
0'
b1 b
0l
1<
#270000
0<
#275000
b0 b
1<
#280000
0<
#285000
1l
b10 b
1<
#290000
0<
#295000
0!
0(
b100 m
b110 Z
1'
b1 b
0l
1<
#300000
0<
#305000
b0 b
1<
#310000
0<
#315000
1l
b10 b
1<
#320000
0<
#325000
0#
0&
b101 m
1%
b1 b
0l
1<
#330000
0<
#335000
b0 b
1<
#340000
0<
#345000
1l
b10 b
1<
#350000
0<
#355000
1!
1(
b110 m
0'
b1 b
0l
1<
#360000
0<
#365000
b0 b
1<
#370000
0<
#375000
1l
b10 b
1<
#380000
0<
#385000
0!
0(
b100 m
b101 Z
1'
b1 b
0l
1<
#390000
0<
#395000
b0 b
1<
#400000
0<
#405000
1l
b10 b
1<
#410000
0<
#415000
1#
1&
b101 m
0%
b1 b
0l
1<
#420000
0<
#425000
b0 b
1<
#430000
0<
#435000
1l
b10 b
1<
#440000
0<
#445000
1!
1(
b110 m
0'
b1 b
0l
1<
#450000
0<
#455000
b0 b
1<
#460000
0<
#465000
1l
b10 b
1<
#470000
0<
#475000
0!
0(
b100 m
b100 Z
1'
b1 b
0l
1<
#480000
0<
#485000
b0 b
1<
#490000
0<
#495000
1l
b10 b
1<
#500000
0<
#505000
0#
0&
b101 m
1%
b1 b
0l
1<
#510000
0<
#515000
b0 b
1<
#520000
0<
#525000
1l
b10 b
1<
#530000
0<
#535000
1!
1(
b110 m
0'
b1 b
0l
1<
#540000
0<
#545000
b0 b
1<
#550000
0<
#555000
1l
b10 b
1<
#560000
0<
#565000
0!
0(
b100 m
b11 Z
1'
b1 b
0l
1<
#570000
0<
#575000
b0 b
1<
#580000
0<
#585000
1l
b10 b
1<
#590000
0<
#595000
b101 m
b1 b
0l
1<
#600000
0<
#605000
b0 b
1<
#610000
0<
#615000
1l
b10 b
1<
#620000
0<
#625000
1!
1(
b110 m
0'
b1 b
0l
1<
#630000
0<
#635000
b0 b
1<
#640000
0<
#645000
1l
b10 b
1<
#650000
0<
#655000
0!
0(
b100 m
b10 Z
1'
b1 b
0l
1<
#660000
0<
#665000
b0 b
1<
#670000
0<
#675000
1l
b10 b
1<
#680000
0<
#685000
b101 m
b1 b
0l
1<
#690000
0<
#695000
b0 b
1<
#700000
0<
#705000
1l
b10 b
1<
#710000
0<
#715000
1!
1(
b110 m
0'
b1 b
0l
1<
#720000
0<
#725000
b0 b
1<
#730000
0<
#735000
1l
b10 b
1<
#740000
0<
#745000
0!
0(
b100 m
b1 Z
1'
b1 b
0l
1<
#750000
0<
#755000
b0 b
1<
#760000
0<
#765000
1l
b10 b
1<
#770000
0<
#775000
b101 m
b1 b
0l
1<
#780000
0<
#785000
b0 b
1<
#790000
0<
#795000
1l
b10 b
1<
#800000
0<
#805000
1!
1(
b110 m
0'
b1 b
0l
1<
#810000
0<
#815000
b0 b
1<
#820000
0<
#825000
1l
b10 b
1<
#830000
0<
#835000
0!
0(
b100 m
b0 Z
1'
b1 b
0l
1<
#840000
0<
#845000
b0 b
1<
#850000
0<
#855000
1l
b10 b
1<
#860000
0<
#865000
b101 m
b1 b
0l
1<
#870000
0<
#875000
b0 b
1<
#880000
0<
#885000
1l
b10 b
1<
#890000
0<
#895000
1!
1(
b110 m
0'
b1 b
0l
1<
#900000
0<
#905000
b0 b
1<
#910000
0<
#915000
1l
b10 b
1<
#920000
0<
#925000
0!
0(
1D
b111 m
1'
b1 b
0l
1<
#930000
0<
#935000
b0 b
1<
#940000
0<
#945000
1l
b10 b
1<
#950000
0<
#955000
1D
b1000 m
0%
b1 b
0l
1<
#960000
0<
#965000
b0 b
1<
#970000
0<
#975000
1l
b10 b
1<
#980000
0<
#985000
1#
1&
1!
1(
0D
b1001 m
0'
b1 b
0l
1<
#990000
0<
#995000
b0 b
1<
#1000000
0<
#1005000
1l
b10 b
1<
#1010000
0<
#1015000
0!
0(
1)
b101 *
b101 a
b0 m
0g
1f
1c
1'
b1 b
0l
1<
#1020000
b100110 *
b100110 a
1?
b1 @
b1 H
0<
#1025000
b0 b
1<
#1030000
b111100 s
b1 r
0?
0<
#1035000
1<
#1040000
1E
b111100 =
b111100 F
0<
#1045000
0)
b10 *
b10 a
0f
0c
1<
#1050000
b10000 s
b11 r
0E
0<
#1055000
1<
#1060000
b0 *
b0 a
1E
b10000 =
b10000 F
b11 @
b11 H
0<
#1065000
b10000 o
1<
#1070000
b100 s
b100 r
0E
0<
#1075000
1<
#1080000
1G
b101 *
b101 a
1E
b100 =
b100 F
b100 @
b100 H
0<
#1085000
0G
b100 *
b100 a
b100 m
1g
b111 Z
b10000 p
0^
1<
#1090000
b10101110101001001001001010101000100010100100000010100100100010101000111001000000100100101001110010001000100010101011000 t
0E
0<
#1095000
1l
b10 b
1<
#1100000
0<
#1105000
0#
0&
b101 m
1%
b1 b
0l
1<
#1110000
0<
#1115000
b0 b
1<
#1120000
0<
#1125000
1l
b10 b
1<
#1130000
0<
#1135000
1!
1(
b110 m
0'
b1 b
0l
1<
#1140000
0<
#1145000
b0 b
1<
#1150000
0<
#1155000
1l
b10 b
1<
#1160000
0<
#1165000
0!
0(
b100 m
b110 Z
1'
b1 b
0l
1<
#1170000
0<
#1175000
b0 b
1<
#1180000
0<
#1185000
1l
b10 b
1<
#1190000
0<
#1195000
b101 m
b1 b
0l
1<
#1200000
0<
#1205000
b0 b
1<
#1210000
0<
#1215000
1l
b10 b
1<
#1220000
0<
#1225000
1!
1(
b110 m
0'
b1 b
0l
1<
#1230000
0<
#1235000
b0 b
1<
#1240000
0<
#1245000
1l
b10 b
1<
#1250000
0<
#1255000
0!
0(
b100 m
b101 Z
1'
b1 b
0l
1<
#1260000
0<
#1265000
b0 b
1<
#1270000
0<
#1275000
1l
b10 b
1<
#1280000
0<
#1285000
b101 m
b1 b
0l
1<
#1290000
0<
#1295000
b0 b
1<
#1300000
0<
#1305000
1l
b10 b
1<
#1310000
0<
#1315000
1!
1(
b110 m
0'
b1 b
0l
1<
#1320000
0<
#1325000
b0 b
1<
#1330000
0<
#1335000
1l
b10 b
1<
#1340000
0<
#1345000
0!
0(
b100 m
b100 Z
1'
b1 b
0l
1<
#1350000
0<
#1355000
b0 b
1<
#1360000
0<
#1365000
1l
b10 b
1<
#1370000
0<
#1375000
1#
1&
b101 m
0%
b1 b
0l
1<
#1380000
0<
#1385000
b0 b
1<
#1390000
0<
#1395000
1l
b10 b
1<
#1400000
0<
#1405000
1!
1(
b110 m
0'
b1 b
0l
1<
#1410000
0<
#1415000
b0 b
1<
#1420000
0<
#1425000
1l
b10 b
1<
#1430000
0<
#1435000
0!
0(
b100 m
b11 Z
1'
b1 b
0l
1<
#1440000
0<
#1445000
b0 b
1<
#1450000
0<
#1455000
1l
b10 b
1<
#1460000
0<
#1465000
0#
0&
b101 m
1%
b1 b
0l
1<
#1470000
0<
#1475000
b0 b
1<
#1480000
0<
#1485000
1l
b10 b
1<
#1490000
0<
#1495000
1!
1(
b110 m
0'
b1 b
0l
1<
#1500000
0<
#1505000
b0 b
1<
#1510000
0<
#1515000
1l
b10 b
1<
#1520000
0<
#1525000
0!
0(
b100 m
b10 Z
1'
b1 b
0l
1<
#1530000
0<
#1535000
b0 b
1<
#1540000
0<
#1545000
1l
b10 b
1<
#1550000
0<
#1555000
b101 m
b1 b
0l
1<
#1560000
0<
#1565000
b0 b
1<
#1570000
0<
#1575000
1l
b10 b
1<
#1580000
0<
#1585000
1!
1(
b110 m
0'
b1 b
0l
1<
#1590000
0<
#1595000
b0 b
1<
#1600000
0<
#1605000
1l
b10 b
1<
#1610000
0<
#1615000
0!
0(
b100 m
b1 Z
1'
b1 b
0l
1<
#1620000
0<
#1625000
b0 b
1<
#1630000
0<
#1635000
1l
b10 b
1<
#1640000
0<
#1645000
b101 m
b1 b
0l
1<
#1650000
0<
#1655000
b0 b
1<
#1660000
0<
#1665000
1l
b10 b
1<
#1670000
0<
#1675000
1!
1(
b110 m
0'
b1 b
0l
1<
#1680000
0<
#1685000
b0 b
1<
#1690000
0<
#1695000
1l
b10 b
1<
#1700000
0<
#1705000
0!
0(
b100 m
b0 Z
1'
b1 b
0l
1<
#1710000
0<
#1715000
b0 b
1<
#1720000
0<
#1725000
1l
b10 b
1<
#1730000
0<
#1735000
b101 m
b1 b
0l
1<
#1740000
0<
#1745000
b0 b
1<
#1750000
0<
#1755000
1l
b10 b
1<
#1760000
0<
#1765000
1!
1(
b110 m
0'
b1 b
0l
1<
#1770000
0<
#1775000
b0 b
1<
#1780000
0<
#1785000
1l
b10 b
1<
#1790000
0<
#1795000
0!
0(
1D
b111 m
1'
b1 b
0l
1<
#1800000
0<
#1805000
b0 b
1<
#1810000
0<
#1815000
1l
b10 b
1<
#1820000
0<
#1825000
1D
b1000 m
0%
b1 b
0l
1<
#1830000
0<
#1835000
b0 b
1<
#1840000
0<
#1845000
1l
b10 b
1<
#1850000
0<
#1855000
1#
1&
1!
1(
0D
b1001 m
0'
b1 b
0l
1<
#1860000
0<
#1865000
b0 b
1<
#1870000
0<
#1875000
1l
b10 b
1<
#1880000
0<
#1885000
0!
0(
1)
b100 *
b100 a
b0 m
0g
1f
1c
1'
b1 b
0l
1<
#1890000
b100110 *
b100110 a
1?
b1 @
b1 H
0<
#1895000
b0 b
1<
#1900000
b111100 s
b1 r
0?
0<
#1905000
1<
#1910000
1E
b111100 =
b111100 F
0<
#1915000
0)
b10 *
b10 a
0f
0c
1<
#1920000
b10100001 s
b11 r
0E
0<
#1925000
1<
#1930000
b0 *
b0 a
1E
b10100001 =
b10100001 F
b11 @
b11 H
0<
#1935000
b10100001 o
1<
#1940000
b101 s
b100 r
0E
0<
#1945000
1<
#1950000
1G
b100 *
b100 a
1E
b101 =
b101 F
b100 @
b100 H
0<
#1955000
0G
1!
1(
b101 *
b101 a
0'
b1 m
1g
b111 Z
b10100001 p
1^
1<
#1960000
b10100100100010101010000010001010100000101010100010001010100010000100000010100110101010001000001010100100101010000100000001010110010000001000001010001000100010001010010001010000101001000101001 t
0E
0<
#1965000
1l
b10 b
1<
#1970000
0<
#1975000
b10 m
b1 b
0l
1<
#1980000
0<
#1985000
b0 b
1<
#1990000
0<
#1995000
1l
b10 b
1<
#2000000
0<
#2005000
0#
0&
b11 m
1%
b1 b
0l
1<
#2010000
0<
#2015000
b0 b
1<
#2020000
0<
#2025000
1l
b10 b
1<
#2030000
0<
#2035000
0!
0(
b100 m
1'
b1 b
0l
1<
#2040000
0<
#2045000
b0 b
1<
#2050000
0<
#2055000
1l
b10 b
1<
#2060000
0<
#2065000
1#
1&
b101 m
0%
b1 b
0l
1<
#2070000
0<
#2075000
b0 b
1<
#2080000
0<
#2085000
1l
b10 b
1<
#2090000
0<
#2095000
1!
1(
b110 m
0'
b1 b
0l
1<
#2100000
0<
#2105000
b0 b
1<
#2110000
0<
#2115000
1l
b10 b
1<
#2120000
0<
#2125000
0!
0(
b100 m
b110 Z
1'
b1 b
0l
1<
#2130000
0<
#2135000
b0 b
1<
#2140000
0<
#2145000
1l
b10 b
1<
#2150000
0<
#2155000
0#
0&
b101 m
1%
b1 b
0l
1<
#2160000
0<
#2165000
b0 b
1<
#2170000
0<
#2175000
1l
b10 b
1<
#2180000
0<
#2185000
1!
1(
b110 m
0'
b1 b
0l
1<
#2190000
0<
#2195000
b0 b
1<
#2200000
0<
#2205000
1l
b10 b
1<
#2210000
0<
#2215000
0!
0(
b100 m
b101 Z
1'
b1 b
0l
1<
#2220000
0<
#2225000
b0 b
1<
#2230000
0<
#2235000
1l
b10 b
1<
#2240000
0<
#2245000
1#
1&
b101 m
0%
b1 b
0l
1<
#2250000
0<
#2255000
b0 b
1<
#2260000
0<
#2265000
1l
b10 b
1<
#2270000
0<
#2275000
1!
1(
b110 m
0'
b1 b
0l
1<
#2280000
0<
#2285000
b0 b
1<
#2290000
0<
#2295000
1l
b10 b
1<
#2300000
0<
#2305000
0!
0(
b100 m
b100 Z
1'
b1 b
0l
1<
#2310000
0<
#2315000
b0 b
1<
#2320000
0<
#2325000
1l
b10 b
1<
#2330000
0<
#2335000
0#
0&
b101 m
1%
b1 b
0l
1<
#2340000
0<
#2345000
b0 b
1<
#2350000
0<
#2355000
1l
b10 b
1<
#2360000
0<
#2365000
1!
1(
b110 m
0'
b1 b
0l
1<
#2370000
0<
#2375000
b0 b
1<
#2380000
0<
#2385000
1l
b10 b
1<
#2390000
0<
#2395000
0!
0(
b100 m
b11 Z
1'
b1 b
0l
1<
#2400000
0<
#2405000
b0 b
1<
#2410000
0<
#2415000
1l
b10 b
1<
#2420000
0<
#2425000
b101 m
b1 b
0l
1<
#2430000
0<
#2435000
b0 b
1<
#2440000
0<
#2445000
1l
b10 b
1<
#2450000
0<
#2455000
1!
1(
b110 m
0'
b1 b
0l
1<
#2460000
0<
#2465000
b0 b
1<
#2470000
0<
#2475000
1l
b10 b
1<
#2480000
0<
#2485000
0!
0(
b100 m
b10 Z
1'
b1 b
0l
1<
#2490000
0<
#2495000
b0 b
1<
#2500000
0<
#2505000
1l
b10 b
1<
#2510000
0<
#2515000
b101 m
b1 b
0l
1<
#2520000
0<
#2525000
b0 b
1<
#2530000
0<
#2535000
1l
b10 b
1<
#2540000
0<
#2545000
1!
1(
b110 m
0'
b1 b
0l
1<
#2550000
0<
#2555000
b0 b
1<
#2560000
0<
#2565000
1l
b10 b
1<
#2570000
0<
#2575000
0!
0(
b100 m
b1 Z
1'
b1 b
0l
1<
#2580000
0<
#2585000
b0 b
1<
#2590000
0<
#2595000
1l
b10 b
1<
#2600000
0<
#2605000
b101 m
b1 b
0l
1<
#2610000
0<
#2615000
b0 b
1<
#2620000
0<
#2625000
1l
b10 b
1<
#2630000
0<
#2635000
1!
1(
b110 m
0'
b1 b
0l
1<
#2640000
0<
#2645000
b0 b
1<
#2650000
0<
#2655000
1l
b10 b
1<
#2660000
0<
#2665000
0!
0(
b100 m
b0 Z
1'
b1 b
0l
1<
#2670000
0<
#2675000
b0 b
1<
#2680000
0<
#2685000
1l
b10 b
1<
#2690000
0<
#2695000
1#
1&
b101 m
0%
b1 b
0l
1<
#2700000
0<
#2705000
b0 b
1<
#2710000
0<
#2715000
1l
b10 b
1<
#2720000
0<
#2725000
1!
1(
b110 m
0'
b1 b
0l
1<
#2730000
0<
#2735000
b0 b
1<
#2740000
0<
#2745000
1l
b10 b
1<
#2750000
0<
#2755000
0#
0&
0!
0(
1D
b111 m
1'
b1 b
0l
1<
#2760000
0<
#2765000
b0 b
1<
#2770000
0<
#2775000
1l
b10 b
1<
#2780000
0<
#2785000
1D
b1000 m
b1 b
0l
1<
#2790000
0<
#2795000
b0 b
1<
#2800000
0<
#2805000
1l
b10 b
1<
#2810000
0<
#2815000
1#
1&
1!
1(
0D
b1001 m
0'
b1 b
0l
1<
#2820000
0<
#2825000
b0 b
1<
#2830000
0<
#2835000
1l
b10 b
1<
#2840000
0<
#2845000
0!
0(
1)
b101 *
b101 a
b0 m
0g
1f
1c
1'
b1 b
0l
1<
#2850000
b100110 *
b100110 a
1?
b1 @
b1 H
0<
#2855000
b0 b
1<
#2860000
b111100 s
b1 r
0?
0<
#2865000
1<
#2870000
1E
b111100 =
b111100 F
0<
#2875000
0)
b10 *
b10 a
0f
0c
1<
#2880000
b11010 s
b100 r
0E
0<
#2885000
1<
#2890000
1G
b101 *
b101 a
1E
b11010 =
b11010 F
b100 @
b100 H
0<
#2895000
0G
0#
0&
1D
b11010 *
b11010 a
b100 m
1g
b111 Z
1]
1\
0`
1_
0^
1<
#2900000
0E
0<
#2905000
1l
b10 b
1<
#2910000
0<
#2915000
1D
b101 m
b1 b
0l
1<
#2920000
0<
#2925000
b0 b
1<
#2930000
0<
#2935000
1l
b10 b
1<
#2940000
0<
#2945000
1#
1&
1!
1(
0D
b110 m
0'
b1 b
0l
1<
#2950000
0<
#2955000
b0 b
1<
#2960000
0<
#2965000
1l
b10 b
1<
#2970000
0<
#2975000
0#
0&
0!
0(
1D
b100 m
b110 Z
1'
b1 b
0l
1<
#2980000
0<
#2985000
b0 b
1<
#2990000
0<
#2995000
1l
b10 b
1<
#3000000
0<
#3005000
1D
b101 m
b1 b
0l
1<
#3010000
0<
#3015000
b0 b
1<
#3020000
0<
#3025000
1l
b10 b
1<
#3030000
0<
#3035000
1#
1&
1!
1(
0D
b110 m
0'
b1 b
0l
1<
#3040000
0<
#3045000
b0 b
1<
#3050000
0<
#3055000
1l
b10 b
1<
#3060000
0<
#3065000
0!
0(
b100 m
b101 Z
1'
b1 b
0l
1<
#3070000
0<
#3075000
b0 b
1<
#3080000
0<
#3085000
1l
b10 b
1<
#3090000
0<
#3095000
b101 m
b1 b
0l
1<
#3100000
0<
#3105000
b0 b
1<
#3110000
0<
#3115000
1l
b10 b
1<
#3120000
0<
#3125000
1!
1(
b110 m
b100000 j
0'
b1 b
0l
1<
#3130000
0<
#3135000
b0 b
1<
#3140000
0<
#3145000
1l
b10 b
1<
#3150000
0<
#3155000
0!
0(
b100 m
b100 Z
1'
b1 b
0l
1<
#3160000
0<
#3165000
b0 b
1<
#3170000
0<
#3175000
1l
b10 b
1<
#3180000
0<
#3185000
b101 m
b1 b
0l
1<
#3190000
0<
#3195000
b0 b
1<
#3200000
0<
#3205000
1l
b10 b
1<
#3210000
0<
#3215000
1!
1(
b110 m
b110000 j
0'
b1 b
0l
1<
#3220000
0<
#3225000
b0 b
1<
#3230000
0<
#3235000
1l
b10 b
1<
#3240000
0<
#3245000
0!
0(
b100 m
b11 Z
1'
b1 b
0l
1<
#3250000
0<
#3255000
b0 b
1<
#3260000
0<
#3265000
1l
b10 b
1<
#3270000
0<
#3275000
b101 m
b1 b
0l
1<
#3280000
0<
#3285000
b0 b
1<
#3290000
0<
#3295000
1l
b10 b
1<
#3300000
0<
#3305000
1!
1(
b110 m
b111000 j
0'
b1 b
0l
1<
#3310000
0<
#3315000
b0 b
1<
#3320000
0<
#3325000
1l
b10 b
1<
#3330000
0<
#3335000
0!
0(
b100 m
b10 Z
1'
b1 b
0l
1<
#3340000
0<
#3345000
b0 b
1<
#3350000
0<
#3355000
1l
b10 b
1<
#3360000
0<
#3365000
b101 m
b1 b
0l
1<
#3370000
0<
#3375000
b0 b
1<
#3380000
0<
#3385000
1l
b10 b
1<
#3390000
0<
#3395000
1!
1(
b110 m
b111100 j
0'
b1 b
0l
1<
#3400000
0<
#3405000
b0 b
1<
#3410000
0<
#3415000
1l
b10 b
1<
#3420000
0<
#3425000
0#
0&
0!
0(
1D
b100 m
b1 Z
1'
b1 b
0l
1<
#3430000
0<
#3435000
b0 b
1<
#3440000
0<
#3445000
1l
b10 b
1<
#3450000
0<
#3455000
1D
b101 m
b1 b
0l
1<
#3460000
0<
#3465000
b0 b
1<
#3470000
0<
#3475000
1l
b10 b
1<
#3480000
0<
#3485000
1#
1&
1!
1(
0D
b110 m
0'
b1 b
0l
1<
#3490000
0<
#3495000
b0 b
1<
#3500000
0<
#3505000
1l
b10 b
1<
#3510000
0<
#3515000
0#
0&
0!
0(
1D
b100 m
b0 Z
1'
b1 b
0l
1<
#3520000
0<
#3525000
b0 b
1<
#3530000
0<
#3535000
1l
b10 b
1<
#3540000
0<
#3545000
1D
b101 m
b1 b
0l
1<
#3550000
0<
#3555000
b0 b
1<
#3560000
0<
#3565000
1l
b10 b
1<
#3570000
0<
#3575000
1#
1&
1!
1(
0D
b110 m
0'
b1 b
0l
1<
#3580000
0<
#3585000
b0 b
1<
#3590000
0<
#3595000
1l
b10 b
1<
#3600000
0<
#3605000
0!
0(
b1010 m
1'
b1 b
0l
1<
#3610000
0<
#3615000
b0 b
1<
#3620000
0<
#3625000
1l
b10 b
1<
#3630000
0<
#3635000
b1011 m
b1 b
0l
1<
#3640000
0<
#3645000
b0 b
1<
#3650000
0<
#3655000
1l
b10 b
1<
#3660000
0<
#3665000
1!
1(
b1100 m
0'
b1 b
0l
1<
#3670000
0<
#3675000
b0 b
1<
#3680000
0<
#3685000
1l
b10 b
1<
#3690000
0<
#3695000
0!
0(
b11010 *
b11010 a
b1101 m
1k
b111100 i
1'
b1 b
0l
1<
#3700000
0<
#3705000
b0 b
1<
#3710000
0<
#3715000
1l
b10 b
1<
#3720000
0<
#3725000
0#
0&
b1110 m
1%
b1 b
0l
1<
#3730000
0<
#3735000
b0 b
1<
#3740000
0<
#3745000
1l
b10 b
1<
#3750000
0<
#3755000
1!
1(
b1111 m
0'
b1 b
0l
1<
#3760000
0<
#3765000
b0 b
1<
#3770000
0<
#3775000
1l
b10 b
1<
#3780000
0<
#3785000
1#
1&
1)
b11010 *
b11010 a
b0 m
0g
1f
1c
0[
0%
b1 b
0l
1<
#3790000
b110100 *
b110100 a
1?
b1 @
b1 H
0<
#3795000
b0 b
1<
#3800000
b11 q
0?
0<
#3805000
1<
#3810000
b111100 *
b111100 a
1?
b11 @
b11 H
0<
#3815000
1<
#3820000
0?
0<
