verilog/tb/i2c_master_read.vcd
$date
	Tue Apr 07 21:26:55 2026
$end
$version
	Icarus Verilog
$end
$timescale
	1ps
$end
$scope module tb_i2c_master_read $end
$var wire 1 ! scl_in $end
$var wire 1 " scl_out $end
$var wire 1 # sda_in $end
$var wire 1 $ sda_out $end
$var wire 1 % sda_oe $end
$var wire 1 & sda_bus $end
$var wire 1 ' scl_oe $end
$var wire 1 ( scl_bus $end
$var wire 1 ) interrupt $end
$var wire 16 * cpu_dout [15:0] $end
$var parameter 4 + ST_ACK_HIGHR $end
$var parameter 4 , ST_ACK_HIGHW $end
$var parameter 4 - ST_ACK_LOWR $end
$var parameter 4 . ST_ACK_LOWW $end
$var parameter 4 / ST_ACK_SETUPR $end
$var parameter 4 0 ST_ACK_SETUPW $end
$var parameter 4 1 ST_BIT_HIGH $end
$var parameter 4 2 ST_BIT_LOW $end
$var parameter 4 3 ST_BIT_SETUP $end
$var parameter 4 4 ST_IDLE $end
$var parameter 4 5 ST_START_1 $end
$var parameter 4 6 ST_START_2 $end
$var parameter 4 7 ST_START_3 $end
$var parameter 4 8 ST_STOP_1 $end
$var parameter 4 9 ST_STOP_2 $end
$var parameter 4 : ST_STOP_3 $end
$var reg 1 ; clk $end
$var reg 16 < cpu_din [15:0] $end
$var reg 1 = rd_en $end
$var reg 4 > reg_addr [3:0] $end
$var reg 1 ? rst $end
$var reg 8 @ slave_read_byte [7:0] $end
$var reg 1 A slave_scl_oe $end
$var reg 1 B slave_sda_oe $end
$var reg 1 C wr_en $end
$scope module dut $end
$var wire 1 ; clk $end
$var wire 16 D cpu_din [15:0] $end
$var wire 1 ) interrupt $end
$var wire 1 E launch_cmd $end
$var wire 1 = rd_en $end
$var wire 4 F reg_addr [3:0] $end
$var wire 1 ? rst $end
$var wire 1 ! scl_in $end
$var wire 1 " scl_out $end
$var wire 1 # sda_in $end
$var wire 1 $ sda_out $end
$var wire 1 C wr_en $end
$var parameter 4 G ST_ACK_HIGHR $end
$var parameter 4 H ST_ACK_HIGHW $end
$var parameter 4 I ST_ACK_LOWR $end
$var parameter 4 J ST_ACK_LOWW $end
$var parameter 4 K ST_ACK_SETUPR $end
$var parameter 4 L ST_ACK_SETUPW $end
$var parameter 4 M ST_BIT_HIGH $end
$var parameter 4 N ST_BIT_LOW $end
$var parameter 4 O ST_BIT_SETUP $end
$var parameter 4 P ST_IDLE $end
$var parameter 4 Q ST_START_1 $end
$var parameter 4 R ST_START_2 $end
$var parameter 4 S ST_START_3 $end
$var parameter 4 T ST_STOP_1 $end
$var parameter 4 U ST_STOP_2 $end
$var parameter 4 V ST_STOP_3 $end
$var reg 1 W ack_error $end
$var reg 4 X bit_count [3:0] $end
$var reg 1 Y bus_active $end
$var reg 1 Z cmd_read $end
$var reg 1 [ cmd_read_nack $end
$var reg 1 \ cmd_start $end
$var reg 1 ] cmd_stop $end
$var reg 1 ^ cmd_write $end
$var reg 16 _ cpu_dout [15:0] $end
$var reg 16 ` divcnt [15:0] $end
$var reg 1 a done $end
$var reg 1 b enable $end
$var reg 1 c irq_enable $end
$var reg 1 d irq_pending $end
$var reg 1 e op_busy $end
$var reg 16 f prescale_reg [15:0] $end
$var reg 8 g rx_data_reg [7:0] $end
$var reg 8 h rx_shift [7:0] $end
$var reg 1 i rx_valid $end
$var reg 1 ' scl_oe $end
$var reg 1 % sda_oe $end
$var reg 1 j sm_tick $end
$var reg 4 k state [3:0] $end
$var reg 1 l stretch_enable $end
$var reg 8 m tx_data_reg [7:0] $end
$var reg 8 n tx_shift [7:0] $end
$upscope $end
$scope task cpu_read $end
$var reg 4 o addr [3:0] $end
$upscope $end
$scope task cpu_write $end
$var reg 4 p addr [3:0] $end
$var reg 16 q data [15:0] $end
$upscope $end
$scope task show_status $end
$upscope $end
$upscope $end
$enddefinitions $end
$comment Show the parameter values. $end
$dumpall
b1111 V
b1110 U
b1101 T
b11 S
b10 R
b1 Q
b0 P
b100 O
b110 N
b101 M
b111 L
b1010 K
b1001 J
b1100 I
b1000 H
b1011 G
b1111 :
b1110 9
b1101 8
b11 7
b10 6
b1 5
b0 4
b100 3
b110 2
b101 1
b111 0
b1010 /
b1001 .
b1100 -
b1000 ,
b1011 +
$end
#0
$dumpvars
bx q
bx p
bx o
b0 n
b0 m
0l
b0 k
0j
0i
b0 h
b0 g
b0 f
0e
0d
0c
0b
0a
b0 `
b0 _
0^
0]
0\
0[
0Z
0Y
b0 X
0W
b0 F
0E
b0 D
0C
0B
0A
b111100 @
1?
b0 >
0=
b0 <
0;
b0 *
0)
1(
0'
1&
0%
0$
1#
0"
1!
$end
#5000
1;
#10000
0;
#15000
1;
#20000
0;
#25000
1;
#30000
0;
#35000
1;
#40000
0;
#45000
1;
#50000
b11 q
b0 p
0?
0;
#55000
1;
#60000
1C
b11 <
b11 D
0;
#65000
b11 *
b11 _
1c
1b
1;
#70000
b10 q
b10 p
0C
0;
#75000
1;
#80000
b0 *
b0 _
1C
b10 <
b10 D
b10 >
b10 F
0;
#85000
b10 *
b10 _
b10 f
1;
#90000
b10100001 q
b11 p
0C
0;
#95000
1;
#100000
b0 *
b0 _
1C
b10100001 <
b10100001 D
b11 >
b11 F
0;
#105000
b10100001 m
1;
#110000
b101 q
b100 p
0C
0;
#115000
1;
#120000
1E
1C
b101 <
b101 D
b100 >
b100 F
0;
#125000
0E
b101 *
b101 _
b1 k
1e
b111 X
b10100001 n
1^
1\
1;
#130000
0C
0;
#135000
1j
b10 `
1;
#140000
0;
#145000
b10 k
b1 `
0j
1;
#150000
0;
#155000
b0 `
1;
#160000
0;
#165000
1j
b10 `
1;
#170000
0;
#175000
0#
0&
b11 k
1%
b1 `
0j
1;
#180000
0;
#185000
b0 `
1;
#190000
0;
#195000
1j
b10 `
1;
#200000
0;
#205000
0!
0(
b101 *
b101 _
b100 k
1Y
1'
b1 `
0j
1;
#210000
0;
#215000
b0 `
1;
#220000
0;
#225000
1j
b10 `
1;
#230000
0;
#235000
1#
1&
b101 k
0%
b1 `
0j
1;
#240000
0;
#245000
b0 `
1;
#250000
0;
#255000
1j
b10 `
1;
#260000
0;
#265000
1!
1(
b110 k
0'
b1 `
0j
1;
#270000
0;
#275000
b0 `
1;
#280000
0;
#285000
1j
b10 `
1;
#290000
0;
#295000
0!
0(
b100 k
b110 X
1'
b1 `
0j
1;
#300000
0;
#305000
b0 `
1;
#310000
0;
#315000
1j
b10 `
1;
#320000
0;
#325000
0#
0&
b101 k
1%
b1 `
0j
1;
#330000
0;
#335000
b0 `
1;
#340000
0;
#345000
1j
b10 `
1;
#350000
0;
#355000
1!
1(
b110 k
0'
b1 `
0j
1;
#360000
0;
#365000
b0 `
1;
#370000
0;
#375000
1j
b10 `
1;
#380000
0;
#385000
0!
0(
b100 k
b101 X
1'
b1 `
0j
1;
#390000
0;
#395000
b0 `
1;
#400000
0;
#405000
1j
b10 `
1;
#410000
0;
#415000
1#
1&
b101 k
0%
b1 `
0j
1;
#420000
0;
#425000
b0 `
1;
#430000
0;
#435000
1j
b10 `
1;
#440000
0;
#445000
1!
1(
b110 k
0'
b1 `
0j
1;
#450000
0;
#455000
b0 `
1;
#460000
0;
#465000
1j
b10 `
1;
#470000
0;
#475000
0!
0(
b100 k
b100 X
1'
b1 `
0j
1;
#480000
0;
#485000
b0 `
1;
#490000
0;
#495000
1j
b10 `
1;
#500000
0;
#505000
0#
0&
b101 k
1%
b1 `
0j
1;
#510000
0;
#515000
b0 `
1;
#520000
0;
#525000
1j
b10 `
1;
#530000
0;
#535000
1!
1(
b110 k
0'
b1 `
0j
1;
#540000
0;
#545000
b0 `
1;
#550000
0;
#555000
1j
b10 `
1;
#560000
0;
#565000
0!
0(
b100 k
b11 X
1'
b1 `
0j
1;
#570000
0;
#575000
b0 `
1;
#580000
0;
#585000
1j
b10 `
1;
#590000
0;
#595000
b101 k
b1 `
0j
1;
#600000
0;
#605000
b0 `
1;
#610000
0;
#615000
1j
b10 `
1;
#620000
0;
#625000
1!
1(
b110 k
0'
b1 `
0j
1;
#630000
0;
#635000
b0 `
1;
#640000
0;
#645000
1j
b10 `
1;
#650000
0;
#655000
0!
0(
b100 k
b10 X
1'
b1 `
0j
1;
#660000
0;
#665000
b0 `
1;
#670000
0;
#675000
1j
b10 `
1;
#680000
0;
#685000
b101 k
b1 `
0j
1;
#690000
0;
#695000
b0 `
1;
#700000
0;
#705000
1j
b10 `
1;
#710000
0;
#715000
1!
1(
b110 k
0'
b1 `
0j
1;
#720000
0;
#725000
b0 `
1;
#730000
0;
#735000
1j
b10 `
1;
#740000
0;
#745000
0!
0(
b100 k
b1 X
1'
b1 `
0j
1;
#750000
0;
#755000
b0 `
1;
#760000
0;
#765000
1j
b10 `
1;
#770000
0;
#775000
b101 k
b1 `
0j
1;
#780000
0;
#785000
b0 `
1;
#790000
0;
#795000
1j
b10 `
1;
#800000
0;
#805000
1!
1(
b110 k
0'
b1 `
0j
1;
#810000
0;
#815000
b0 `
1;
#820000
0;
#825000
1j
b10 `
1;
#830000
0;
#835000
0!
0(
b100 k
b0 X
1'
b1 `
0j
1;
#840000
0;
#845000
b0 `
1;
#850000
0;
#855000
1j
b10 `
1;
#860000
0;
#865000
1#
1&
b101 k
0%
b1 `
0j
1;
#870000
0;
#875000
b0 `
1;
#880000
0;
#885000
1j
b10 `
1;
#890000
0;
#895000
1!
1(
b110 k
0'
b1 `
0j
1;
#900000
0;
#905000
b0 `
1;
#910000
0;
#915000
1j
b10 `
1;
#920000
0;
#925000
0#
0&
0!
0(
1B
b111 k
1'
b1 `
0j
1;
#930000
0;
#935000
b0 `
1;
#940000
0;
#945000
1j
b10 `
1;
#950000
0;
#955000
1B
b1000 k
b1 `
0j
1;
#960000
0;
#965000
b0 `
1;
#970000
0;
#975000
1j
b10 `
1;
#980000
0;
#985000
1#
1&
1!
1(
0B
b1001 k
0'
b1 `
0j
1;
#990000
0;
#995000
b0 `
1;
#1000000
0;
#1005000
1j
b10 `
1;
#1010000
0;
#1015000
0!
0(
1)
b101 *
b101 _
b0 k
0e
1d
1a
1'
b1 `
0j
1;
#1020000
b100110 *
b100110 _
1=
b1 >
b1 F
0;
#1025000
b0 `
1;
#1030000
b111100 q
b1 p
0=
0;
#1035000
1;
#1040000
1C
b111100 <
b111100 D
0;
#1045000
0)
b10 *
b10 _
0d
0a
1;
#1050000
b11010 q
b100 p
0C
0;
#1055000
1;
#1060000
1E
b101 *
b101 _
1C
b11010 <
b11010 D
b100 >
b100 F
0;
#1065000
0E
0#
0&
1B
b11010 *
b11010 _
b100 k
1e
b111 X
1[
1Z
0^
1]
0\
1;
#1070000
0C
0;
#1075000
1j
b10 `
1;
#1080000
0;
#1085000
1B
b101 k
b1 `
0j
1;
#1090000
0;
#1095000
b0 `
1;
#1100000
0;
#1105000
1j
b10 `
1;
#1110000
0;
#1115000
1#
1&
1!
1(
0B
b110 k
0'
b1 `
0j
1;
#1120000
0;
#1125000
b0 `
1;
#1130000
0;
#1135000
1j
b10 `
1;
#1140000
0;
#1145000
0#
0&
0!
0(
1B
b100 k
b110 X
1'
b1 `
0j
1;
#1150000
0;
#1155000
b0 `
1;
#1160000
0;
#1165000
1j
b10 `
1;
#1170000
0;
#1175000
1B
b101 k
b1 `
0j
1;
#1180000
0;
#1185000
b0 `
1;
#1190000
0;
#1195000
1j
b10 `
1;
#1200000
0;
#1205000
1#
1&
1!
1(
0B
b110 k
0'
b1 `
0j
1;
#1210000
0;
#1215000
b0 `
1;
#1220000
0;
#1225000
1j
b10 `
1;
#1230000
0;
#1235000
0!
0(
b100 k
b101 X
1'
b1 `
0j
1;
#1240000
0;
#1245000
b0 `
1;
#1250000
0;
#1255000
1j
b10 `
1;
#1260000
0;
#1265000
b101 k
b1 `
0j
1;
#1270000
0;
#1275000
b0 `
1;
#1280000
0;
#1285000
1j
b10 `
1;
#1290000
0;
#1295000
1!
1(
b110 k
b100000 h
0'
b1 `
0j
1;
#1300000
0;
#1305000
b0 `
1;
#1310000
0;
#1315000
1j
b10 `
1;
#1320000
0;
#1325000
0!
0(
b100 k
b100 X
1'
b1 `
0j
1;
#1330000
0;
#1335000
b0 `
1;
#1340000
0;
#1345000
1j
b10 `
1;
#1350000
0;
#1355000
b101 k
b1 `
0j
1;
#1360000
0;
#1365000
b0 `
1;
#1370000
0;
#1375000
1j
b10 `
1;
#1380000
0;
#1385000
1!
1(
b110 k
b110000 h
0'
b1 `
0j
1;
#1390000
0;
#1395000
b0 `
1;
#1400000
0;
#1405000
1j
b10 `
1;
#1410000
0;
#1415000
0!
0(
b100 k
b11 X
1'
b1 `
0j
1;
#1420000
0;
#1425000
b0 `
1;
#1430000
0;
#1435000
1j
b10 `
1;
#1440000
0;
#1445000
b101 k
b1 `
0j
1;
#1450000
0;
#1455000
b0 `
1;
#1460000
0;
#1465000
1j
b10 `
1;
#1470000
0;
#1475000
1!
1(
b110 k
b111000 h
0'
b1 `
0j
1;
#1480000
0;
#1485000
b0 `
1;
#1490000
0;
#1495000
1j
b10 `
1;
#1500000
0;
#1505000
0!
0(
b100 k
b10 X
1'
b1 `
0j
1;
#1510000
0;
#1515000
b0 `
1;
#1520000
0;
#1525000
1j
b10 `
1;
#1530000
0;
#1535000
b101 k
b1 `
0j
1;
#1540000
0;
#1545000
b0 `
1;
#1550000
0;
#1555000
1j
b10 `
1;
#1560000
0;
#1565000
1!
1(
b110 k
b111100 h
0'
b1 `
0j
1;
#1570000
0;
#1575000
b0 `
1;
#1580000
0;
#1585000
1j
b10 `
1;
#1590000
0;
#1595000
0#
0&
0!
0(
1B
b100 k
b1 X
1'
b1 `
0j
1;
#1600000
0;
#1605000
b0 `
1;
#1610000
0;
#1615000
1j
b10 `
1;
#1620000
0;
#1625000
1B
b101 k
b1 `
0j
1;
#1630000
0;
#1635000
b0 `
1;
#1640000
0;
#1645000
1j
b10 `
1;
#1650000
0;
#1655000
1#
1&
1!
1(
0B
b110 k
0'
b1 `
0j
1;
#1660000
0;
#1665000
b0 `
1;
#1670000
0;
#1675000
1j
b10 `
1;
#1680000
0;
#1685000
0#
0&
0!
0(
1B
b100 k
b0 X
1'
b1 `
0j
1;
#1690000
0;
#1695000
b0 `
1;
#1700000
0;
#1705000
1j
b10 `
1;
#1710000
0;
#1715000
1B
b101 k
b1 `
0j
1;
#1720000
0;
#1725000
b0 `
1;
#1730000
0;
#1735000
1j
b10 `
1;
#1740000
0;
#1745000
1#
1&
1!
1(
0B
b110 k
0'
b1 `
0j
1;
#1750000
0;
#1755000
b0 `
1;
#1760000
0;
#1765000
1j
b10 `
1;
#1770000
0;
#1775000
0!
0(
b1010 k
1'
b1 `
0j
1;
#1780000
0;
#1785000
b0 `
1;
#1790000
0;
#1795000
1j
b10 `
1;
#1800000
0;
#1805000
b1011 k
b1 `
0j
1;
#1810000
0;
#1815000
b0 `
1;
#1820000
0;
#1825000
1j
b10 `
1;
#1830000
0;
#1835000
1!
1(
b1100 k
0'
b1 `
0j
1;
#1840000
0;
#1845000
b0 `
1;
#1850000
0;
#1855000
1j
b10 `
1;
#1860000
0;
#1865000
0!
0(
b11010 *
b11010 _
b1101 k
1i
b111100 g
1'
b1 `
0j
1;
#1870000
0;
#1875000
b0 `
1;
#1880000
0;
#1885000
1j
b10 `
1;
#1890000
0;
#1895000
0#
0&
b1110 k
1%
b1 `
0j
1;
#1900000
0;
#1905000
b0 `
1;
#1910000
0;
#1915000
1j
b10 `
1;
#1920000
0;
#1925000
1!
1(
b1111 k
0'
b1 `
0j
1;
#1930000
0;
#1935000
b0 `
1;
#1940000
0;
#1945000
1j
b10 `
1;
#1950000
0;
#1955000
1#
1&
1)
b11010 *
b11010 _
b0 k
0e
1d
1a
0Y
0%
b1 `
0j
1;
#1960000
b110100 *
b110100 _
1=
b1 >
b1 F
0;
#1965000
b0 `
1;
#1970000
b11 o
0=
0;
#1975000
1;
#1980000
b111100 *
b111100 _
1=
b11 >
b11 F
0;
#1985000
1;
#1990000
0=
0;
