verilog/tb/i2c_master.vcd
$date
	Tue Apr 07 19:04:51 2026
$end
$version
	Icarus Verilog
$end
$timescale
	1ps
$end
$scope module tb_i2c_master_ctrl $end
$var wire 1 ! scl_in $end
$var wire 1 " scl_out $end
$var wire 1 # sda_in $end
$var wire 1 $ sda_out $end
$var wire 1 % sda_oe $end
$var wire 1 & sda_bus $end
$var wire 1 ' scl_oe $end
$var wire 1 ( scl_bus $end
$var wire 1 ) interrupt $end
$var wire 16 * cpu_dout [15:0] $end
$var parameter 4 + ST_ACK_HIGHR $end
$var parameter 4 , ST_ACK_HIGHW $end
$var parameter 4 - ST_ACK_LOWR $end
$var parameter 4 . ST_ACK_LOWW $end
$var parameter 4 / ST_ACK_SETUPR $end
$var parameter 4 0 ST_ACK_SETUPW $end
$var parameter 4 1 ST_BIT_HIGH $end
$var parameter 4 2 ST_BIT_LOW $end
$var parameter 4 3 ST_BIT_SETUP $end
$var parameter 4 4 ST_IDLE $end
$var parameter 4 5 ST_START_1 $end
$var parameter 4 6 ST_START_2 $end
$var parameter 4 7 ST_START_3 $end
$var parameter 4 8 ST_STOP_1 $end
$var parameter 4 9 ST_STOP_2 $end
$var parameter 4 : ST_STOP_3 $end
$var reg 1 ; clk $end
$var reg 16 < cpu_din [15:0] $end
$var reg 1 = rd_en $end
$var reg 4 > reg_addr [3:0] $end
$var reg 1 ? rst $end
$var reg 1 @ slave_scl_oe $end
$var reg 1 A slave_sda_oe $end
$var reg 1 B wr_en $end
$scope module dut $end
$var wire 1 ; clk $end
$var wire 16 C cpu_din [15:0] $end
$var wire 1 ) interrupt $end
$var wire 1 D launch_cmd $end
$var wire 1 = rd_en $end
$var wire 4 E reg_addr [3:0] $end
$var wire 1 ? rst $end
$var wire 1 ! scl_in $end
$var wire 1 " scl_out $end
$var wire 1 # sda_in $end
$var wire 1 $ sda_out $end
$var wire 1 B wr_en $end
$var parameter 4 F ST_ACK_HIGHR $end
$var parameter 4 G ST_ACK_HIGHW $end
$var parameter 4 H ST_ACK_LOWR $end
$var parameter 4 I ST_ACK_LOWW $end
$var parameter 4 J ST_ACK_SETUPR $end
$var parameter 4 K ST_ACK_SETUPW $end
$var parameter 4 L ST_BIT_HIGH $end
$var parameter 4 M ST_BIT_LOW $end
$var parameter 4 N ST_BIT_SETUP $end
$var parameter 4 O ST_IDLE $end
$var parameter 4 P ST_START_1 $end
$var parameter 4 Q ST_START_2 $end
$var parameter 4 R ST_START_3 $end
$var parameter 4 S ST_STOP_1 $end
$var parameter 4 T ST_STOP_2 $end
$var parameter 4 U ST_STOP_3 $end
$var reg 1 V ack_error $end
$var reg 4 W bit_count [3:0] $end
$var reg 1 X bus_active $end
$var reg 1 Y cmd_read $end
$var reg 1 Z cmd_read_nack $end
$var reg 1 [ cmd_start $end
$var reg 1 \ cmd_stop $end
$var reg 1 ] cmd_write $end
$var reg 16 ^ cpu_dout [15:0] $end
$var reg 16 _ divcnt [15:0] $end
$var reg 1 ` done $end
$var reg 1 a enable $end
$var reg 1 b irq_enable $end
$var reg 1 c irq_pending $end
$var reg 1 d op_busy $end
$var reg 16 e prescale_reg [15:0] $end
$var reg 8 f rx_data_reg [7:0] $end
$var reg 8 g rx_shift [7:0] $end
$var reg 1 h rx_valid $end
$var reg 1 ' scl_oe $end
$var reg 1 % sda_oe $end
$var reg 1 i sm_tick $end
$var reg 4 j state [3:0] $end
$var reg 1 k stretch_enable $end
$var reg 8 l tx_data_reg [7:0] $end
$var reg 8 m tx_shift [7:0] $end
$upscope $end
$scope task cpu_write $end
$var reg 4 n addr [3:0] $end
$var reg 16 o data [15:0] $end
$upscope $end
$scope task show_status $end
$upscope $end
$upscope $end
$enddefinitions $end
$comment Show the parameter values. $end
$dumpall
b1111 U
b1110 T
b1101 S
b11 R
b10 Q
b1 P
b0 O
b100 N
b110 M
b101 L
b111 K
b1010 J
b1001 I
b1100 H
b1000 G
b1011 F
b1111 :
b1110 9
b1101 8
b11 7
b10 6
b1 5
b0 4
b100 3
b110 2
b101 1
b111 0
b1010 /
b1001 .
b1100 -
b1000 ,
b1011 +
$end
#0
$dumpvars
bx o
bx n
b0 m
b0 l
0k
b0 j
0i
0h
b0 g
b0 f
b0 e
0d
0c
0b
0a
0`
b0 _
b0 ^
0]
0\
0[
0Z
0Y
0X
b0 W
0V
b0 E
0D
b0 C
0B
0A
0@
1?
b0 >
0=
b0 <
0;
b0 *
0)
1(
0'
1&
0%
0$
1#
0"
1!
$end
#5000
1;
#10000
0;
#15000
1;
#20000
0;
#25000
1;
#30000
0;
#35000
1;
#40000
0;
#45000
1;
#50000
b11 o
b0 n
0?
0;
#55000
1;
#60000
1B
b11 <
b11 C
0;
#65000
b11 *
b11 ^
1b
1a
1;
#70000
b10 o
b10 n
0B
0;
#75000
1;
#80000
b0 *
b0 ^
1B
b10 <
b10 C
b10 >
b10 E
0;
#85000
b10 *
b10 ^
b10 e
1;
#90000
b10100000 o
b11 n
0B
0;
#95000
1;
#100000
b0 *
b0 ^
1B
b10100000 <
b10100000 C
b11 >
b11 E
0;
#105000
b10100000 l
1;
#110000
b101 o
b100 n
0B
0;
#115000
1;
#120000
1D
1B
b101 <
b101 C
b100 >
b100 E
0;
#125000
0D
b101 *
b101 ^
b1 j
1d
b111 W
b10100000 m
1]
1[
1;
#130000
0B
0;
#135000
1i
b10 _
1;
#140000
0;
#145000
b10 j
b1 _
0i
1;
#150000
0;
#155000
b0 _
1;
#160000
0;
#165000
1i
b10 _
1;
#170000
0;
#175000
0#
0&
b11 j
1%
b1 _
0i
1;
#180000
0;
#185000
b0 _
1;
#190000
0;
#195000
1i
b10 _
1;
#200000
0;
#205000
0!
0(
b101 *
b101 ^
b100 j
1X
1'
b1 _
0i
1;
#210000
0;
#215000
b0 _
1;
#220000
0;
#225000
1i
b10 _
1;
#230000
0;
#235000
1#
1&
b101 j
0%
b1 _
0i
1;
#240000
0;
#245000
b0 _
1;
#250000
0;
#255000
1i
b10 _
1;
#260000
0;
#265000
1!
1(
b110 j
0'
b1 _
0i
1;
#270000
0;
#275000
b0 _
1;
#280000
0;
#285000
1i
b10 _
1;
#290000
0;
#295000
0!
0(
b100 j
b110 W
1'
b1 _
0i
1;
#300000
0;
#305000
b0 _
1;
#310000
0;
#315000
1i
b10 _
1;
#320000
0;
#325000
0#
0&
b101 j
1%
b1 _
0i
1;
#330000
0;
#335000
b0 _
1;
#340000
0;
#345000
1i
b10 _
1;
#350000
0;
#355000
1!
1(
b110 j
0'
b1 _
0i
1;
#360000
0;
#365000
b0 _
1;
#370000
0;
#375000
1i
b10 _
1;
#380000
0;
#385000
0!
0(
b100 j
b101 W
1'
b1 _
0i
1;
#390000
0;
#395000
b0 _
1;
#400000
0;
#405000
1i
b10 _
1;
#410000
0;
#415000
1#
1&
b101 j
0%
b1 _
0i
1;
#420000
0;
#425000
b0 _
1;
#430000
0;
#435000
1i
b10 _
1;
#440000
0;
#445000
1!
1(
b110 j
0'
b1 _
0i
1;
#450000
0;
#455000
b0 _
1;
#460000
0;
#465000
1i
b10 _
1;
#470000
0;
#475000
0!
0(
b100 j
b100 W
1'
b1 _
0i
1;
#480000
0;
#485000
b0 _
1;
#490000
0;
#495000
1i
b10 _
1;
#500000
0;
#505000
0#
0&
b101 j
1%
b1 _
0i
1;
#510000
0;
#515000
b0 _
1;
#520000
0;
#525000
1i
b10 _
1;
#530000
0;
#535000
1!
1(
b110 j
0'
b1 _
0i
1;
#540000
0;
#545000
b0 _
1;
#550000
0;
#555000
1i
b10 _
1;
#560000
0;
#565000
0!
0(
b100 j
b11 W
1'
b1 _
0i
1;
#570000
0;
#575000
b0 _
1;
#580000
0;
#585000
1i
b10 _
1;
#590000
0;
#595000
b101 j
b1 _
0i
1;
#600000
0;
#605000
b0 _
1;
#610000
0;
#615000
1i
b10 _
1;
#620000
0;
#625000
1!
1(
b110 j
0'
b1 _
0i
1;
#630000
0;
#635000
b0 _
1;
#640000
0;
#645000
1i
b10 _
1;
#650000
0;
#655000
0!
0(
b100 j
b10 W
1'
b1 _
0i
1;
#660000
0;
#665000
b0 _
1;
#670000
0;
#675000
1i
b10 _
1;
#680000
0;
#685000
b101 j
b1 _
0i
1;
#690000
0;
#695000
b0 _
1;
#700000
0;
#705000
1i
b10 _
1;
#710000
0;
#715000
1!
1(
b110 j
0'
b1 _
0i
1;
#720000
0;
#725000
b0 _
1;
#730000
0;
#735000
1i
b10 _
1;
#740000
0;
#745000
0!
0(
b100 j
b1 W
1'
b1 _
0i
1;
#750000
0;
#755000
b0 _
1;
#760000
0;
#765000
1i
b10 _
1;
#770000
0;
#775000
b101 j
b1 _
0i
1;
#780000
0;
#785000
b0 _
1;
#790000
0;
#795000
1i
b10 _
1;
#800000
0;
#805000
1!
1(
b110 j
0'
b1 _
0i
1;
#810000
0;
#815000
b0 _
1;
#820000
0;
#825000
1i
b10 _
1;
#830000
0;
#835000
0!
0(
b100 j
b0 W
1'
b1 _
0i
1;
#840000
0;
#845000
b0 _
1;
#850000
0;
#855000
1i
b10 _
1;
#860000
0;
#865000
b101 j
b1 _
0i
1;
#870000
0;
#875000
b0 _
1;
#880000
0;
#885000
1i
b10 _
1;
#890000
0;
#895000
1!
1(
b110 j
0'
b1 _
0i
1;
#900000
0;
#905000
b0 _
1;
#910000
0;
#915000
1i
b10 _
1;
#920000
0;
#925000
0!
0(
1A
b111 j
1'
b1 _
0i
1;
#930000
0;
#935000
b0 _
1;
#940000
0;
#945000
1i
b10 _
1;
#950000
0;
#955000
1A
b1000 j
0%
b1 _
0i
1;
#960000
0;
#965000
b0 _
1;
#970000
0;
#975000
1i
b10 _
1;
#980000
0;
#985000
1#
1&
1!
1(
0A
b1001 j
0'
b1 _
0i
1;
#990000
0;
#995000
b0 _
1;
#1000000
0;
#1005000
1i
b10 _
1;
#1010000
0;
#1015000
0!
0(
1)
b101 *
b101 ^
b0 j
0d
1c
1`
1'
b1 _
0i
1;
#1020000
b100110 *
b100110 ^
1=
b1 >
b1 E
0;
#1025000
b0 _
1;
#1030000
b111100 o
b1 n
0=
0;
#1035000
1;
#1040000
1B
b111100 <
b111100 C
0;
#1045000
0)
b10 *
b10 ^
0c
0`
1;
#1050000
b1010101 o
b11 n
0B
0;
#1055000
1;
#1060000
b0 *
b0 ^
1B
b1010101 <
b1010101 C
b11 >
b11 E
0;
#1065000
b1010101 l
1;
#1070000
b110 o
b100 n
0B
0;
#1075000
1;
#1080000
1D
b101 *
b101 ^
1B
b110 <
b110 C
b100 >
b100 E
0;
#1085000
0D
b110 *
b110 ^
b100 j
1d
b111 W
b1010101 m
1\
0[
1;
#1090000
0B
0;
#1095000
1i
b10 _
1;
#1100000
0;
#1105000
0#
0&
b101 j
1%
b1 _
0i
1;
#1110000
0;
#1115000
b0 _
1;
#1120000
0;
#1125000
1i
b10 _
1;
#1130000
0;
#1135000
1!
1(
b110 j
0'
b1 _
0i
1;
#1140000
0;
#1145000
b0 _
1;
#1150000
0;
#1155000
1i
b10 _
1;
#1160000
0;
#1165000
0!
0(
b100 j
b110 W
1'
b1 _
0i
1;
#1170000
0;
#1175000
b0 _
1;
#1180000
0;
#1185000
1i
b10 _
1;
#1190000
0;
#1195000
1#
1&
b101 j
0%
b1 _
0i
1;
#1200000
0;
#1205000
b0 _
1;
#1210000
0;
#1215000
1i
b10 _
1;
#1220000
0;
#1225000
1!
1(
b110 j
0'
b1 _
0i
1;
#1230000
0;
#1235000
b0 _
1;
#1240000
0;
#1245000
1i
b10 _
1;
#1250000
0;
#1255000
0!
0(
b100 j
b101 W
1'
b1 _
0i
1;
#1260000
0;
#1265000
b0 _
1;
#1270000
0;
#1275000
1i
b10 _
1;
#1280000
0;
#1285000
0#
0&
b101 j
1%
b1 _
0i
1;
#1290000
0;
#1295000
b0 _
1;
#1300000
0;
#1305000
1i
b10 _
1;
#1310000
0;
#1315000
1!
1(
b110 j
0'
b1 _
0i
1;
#1320000
0;
#1325000
b0 _
1;
#1330000
0;
#1335000
1i
b10 _
1;
#1340000
0;
#1345000
0!
0(
b100 j
b100 W
1'
b1 _
0i
1;
#1350000
0;
#1355000
b0 _
1;
#1360000
0;
#1365000
1i
b10 _
1;
#1370000
0;
#1375000
1#
1&
b101 j
0%
b1 _
0i
1;
#1380000
0;
#1385000
b0 _
1;
#1390000
0;
#1395000
1i
b10 _
1;
#1400000
0;
#1405000
1!
1(
b110 j
0'
b1 _
0i
1;
#1410000
0;
#1415000
b0 _
1;
#1420000
0;
#1425000
1i
b10 _
1;
#1430000
0;
#1435000
0!
0(
b100 j
b11 W
1'
b1 _
0i
1;
#1440000
0;
#1445000
b0 _
1;
#1450000
0;
#1455000
1i
b10 _
1;
#1460000
0;
#1465000
0#
0&
b101 j
1%
b1 _
0i
1;
#1470000
0;
#1475000
b0 _
1;
#1480000
0;
#1485000
1i
b10 _
1;
#1490000
0;
#1495000
1!
1(
b110 j
0'
b1 _
0i
1;
#1500000
0;
#1505000
b0 _
1;
#1510000
0;
#1515000
1i
b10 _
1;
#1520000
0;
#1525000
0!
0(
b100 j
b10 W
1'
b1 _
0i
1;
#1530000
0;
#1535000
b0 _
1;
#1540000
0;
#1545000
1i
b10 _
1;
#1550000
0;
#1555000
1#
1&
b101 j
0%
b1 _
0i
1;
#1560000
0;
#1565000
b0 _
1;
#1570000
0;
#1575000
1i
b10 _
1;
#1580000
0;
#1585000
1!
1(
b110 j
0'
b1 _
0i
1;
#1590000
0;
#1595000
b0 _
1;
#1600000
0;
#1605000
1i
b10 _
1;
#1610000
0;
#1615000
0!
0(
b100 j
b1 W
1'
b1 _
0i
1;
#1620000
0;
#1625000
b0 _
1;
#1630000
0;
#1635000
1i
b10 _
1;
#1640000
0;
#1645000
0#
0&
b101 j
1%
b1 _
0i
1;
#1650000
0;
#1655000
b0 _
1;
#1660000
0;
#1665000
1i
b10 _
1;
#1670000
0;
#1675000
1!
1(
b110 j
0'
b1 _
0i
1;
#1680000
0;
#1685000
b0 _
1;
#1690000
0;
#1695000
1i
b10 _
1;
#1700000
0;
#1705000
0!
0(
b100 j
b0 W
1'
b1 _
0i
1;
#1710000
0;
#1715000
b0 _
1;
#1720000
0;
#1725000
1i
b10 _
1;
#1730000
0;
#1735000
1#
1&
b101 j
0%
b1 _
0i
1;
#1740000
0;
#1745000
b0 _
1;
#1750000
0;
#1755000
1i
b10 _
1;
#1760000
0;
#1765000
1!
1(
b110 j
0'
b1 _
0i
1;
#1770000
0;
#1775000
b0 _
1;
#1780000
0;
#1785000
1i
b10 _
1;
#1790000
0;
#1795000
0#
0&
0!
0(
1A
b111 j
1'
b1 _
0i
1;
#1800000
0;
#1805000
b0 _
1;
#1810000
0;
#1815000
1i
b10 _
1;
#1820000
0;
#1825000
1A
b1000 j
b1 _
0i
1;
#1830000
0;
#1835000
b0 _
1;
#1840000
0;
#1845000
1i
b10 _
1;
#1850000
0;
#1855000
1#
1&
1!
1(
0A
b1001 j
0'
b1 _
0i
1;
#1860000
0;
#1865000
b0 _
1;
#1870000
0;
#1875000
1i
b10 _
1;
#1880000
0;
#1885000
0!
0(
b1101 j
1'
b1 _
0i
1;
#1890000
0;
#1895000
b0 _
1;
#1900000
0;
#1905000
1i
b10 _
1;
#1910000
0;
#1915000
0#
0&
b1110 j
1%
b1 _
0i
1;
#1920000
0;
#1925000
b0 _
1;
#1930000
0;
#1935000
1i
b10 _
1;
#1940000
0;
#1945000
1!
1(
b1111 j
0'
b1 _
0i
1;
#1950000
0;
#1955000
b0 _
1;
#1960000
0;
#1965000
1i
b10 _
1;
#1970000
0;
#1975000
1#
1&
1)
b110 *
b110 ^
b0 j
0d
1c
1`
0X
0%
b1 _
0i
1;
#1980000
b100100 *
b100100 ^
1=
b1 >
b1 E
0;
#1985000
b0 _
1;
#1990000
0=
0;
