verilog/tb/tb_i2c_master_ctrl_min_reg_rw.vcd
$date
	Sat May 02 03:57:30 2026
$end
$version
	Icarus Verilog
$end
$timescale
	1ps
$end
$scope module tb_i2c_master_ctrl_min $end
$var wire 1 ! sda_in $end
$var wire 1 " sda_out $end
$var wire 1 # sda_oe $end
$var wire 1 $ sda_bus $end
$var wire 1 % scl_out $end
$var wire 1 & scl_oe $end
$var wire 1 ' scl_bus $end
$var wire 1 ( interrupt $end
$var wire 16 ) cpu_dout [15:0] $end
$var parameter 7 * SLAVE_ADDR $end
$var reg 1 + clk $end
$var reg 16 , cpu_din [15:0] $end
$var reg 16 - data_reg [15:0] $end
$var reg 8 . read_data [7:0] $end
$var reg 4 / reg_addr [3:0] $end
$var reg 1 0 rst_n $end
$var reg 1 1 slave_ack_enable $end
$var reg 1 2 slave_ack_this_byte $end
$var reg 1 3 slave_active $end
$var reg 1 4 slave_addr_ok $end
$var reg 4 5 slave_bit_pos [3:0] $end
$var reg 1 6 slave_enabled $end
$var reg 8 7 slave_last_rx_byte [7:0] $end
$var reg 8 8 slave_next_byte [7:0] $end
$var reg 1 9 slave_pending_tx $end
$var reg 8 : slave_reg_ptr [7:0] $end
$var reg 1 ; slave_rw $end
$var reg 8 < slave_rx_shift [7:0] $end
$var reg 1 = slave_sda_drive_low $end
$var reg 1 > slave_tx_mode $end
$var reg 8 ? slave_tx_shift [7:0] $end
$var reg 16 @ status [15:0] $end
$var reg 1 A wr_en $end
$var integer 32 B i [31:0] $end
$var integer 32 C slave_byte_count [31:0] $end
$scope module dut $end
$var wire 1 + clk $end
$var wire 1 D cmd_any $end
$var wire 1 E cmd_hit $end
$var wire 16 F cpu_din [15:0] $end
$var wire 1 ( interrupt $end
$var wire 4 G reg_addr [3:0] $end
$var wire 1 0 rst_n $end
$var wire 1 & scl_oe $end
$var wire 1 ! sda_in $end
$var wire 1 " sda_out $end
$var wire 1 A wr_en $end
$var wire 1 H tick $end
$var wire 1 I cmd_write $end
$var wire 1 J cmd_stop $end
$var wire 1 K cmd_start $end
$var wire 1 L cmd_read $end
$var parameter 8 M I2C_DIV $end
$var parameter 3 N ST_ACK $end
$var parameter 3 O ST_BIT $end
$var parameter 3 P ST_IDLE $end
$var parameter 3 Q ST_START $end
$var parameter 3 R ST_STOP $end
$var reg 1 S ack_error $end
$var reg 3 T bit_count [2:0] $end
$var reg 1 U bus_active $end
$var reg 1 V busy $end
$var reg 16 W cpu_dout [15:0] $end
$var reg 8 X divcnt [7:0] $end
$var reg 1 Y do_byte $end
$var reg 1 Z do_nack $end
$var reg 1 [ do_read $end
$var reg 1 \ do_stop $end
$var reg 1 ] done $end
$var reg 1 ^ enable $end
$var reg 1 _ irq_enable $end
$var reg 2 ` phase [1:0] $end
$var reg 8 a rx_data [7:0] $end
$var reg 1 b rx_valid $end
$var reg 1 % scl_out $end
$var reg 1 # sda_oe $end
$var reg 8 c shift [7:0] $end
$var reg 3 d state [2:0] $end
$var reg 8 e tx_data [7:0] $end
$upscope $end
$scope task check_no_ack_error $end
$var reg 16 f st [15:0] $end
$upscope $end
$scope task clear_status $end
$upscope $end
$scope task cpu_read $end
$var reg 4 g addr [3:0] $end
$var reg 16 h data [15:0] $end
$upscope $end
$scope task cpu_write $end
$var reg 4 i addr [3:0] $end
$var reg 16 j data [15:0] $end
$upscope $end
$scope task i2c_read_byte $end
$var reg 16 k cmd [15:0] $end
$var reg 8 l data_out [7:0] $end
$var reg 16 m data_reg [15:0] $end
$var reg 1 n send_nack $end
$var reg 1 o send_start $end
$var reg 1 p send_stop $end
$var reg 16 q status_out [15:0] $end
$upscope $end
$scope task i2c_write_byte $end
$var reg 16 r cmd [15:0] $end
$var reg 8 s data [7:0] $end
$var reg 1 t send_start $end
$var reg 1 u send_stop $end
$var reg 16 v status_out [15:0] $end
$upscope $end
$scope task slave_init_memory $end
$upscope $end
$scope task slave_process_rx_byte $end
$var reg 8 w b [7:0] $end
$upscope $end
$scope task slave_reset_state $end
$upscope $end
$scope task wait_done $end
$var reg 16 x st [15:0] $end
$var integer 32 y timeout [31:0] $end
$upscope $end
$upscope $end
$enddefinitions $end
$comment Show the parameter values. $end
$dumpall
b100 R
b1 Q
b0 P
b10 O
b11 N
b10100 M
b1010000 *
$end
#0
$dumpvars
bx y
bx x
bx w
bx v
xu
xt
bx s
bx r
bx q
xp
xo
xn
bx m
bx l
bx k
bx j
bx i
bx h
bx g
bx f
b0 e
b0 d
b0 c
0b
b0 a
b0 `
0_
0^
0]
0\
0[
0Z
0Y
b0 X
b0 W
0V
0U
b0 T
0S
0L
0K
0J
0I
1H
b0 G
b0 F
0E
0D
b0 C
b10000 B
0A
bx @
b0 ?
0>
0=
b0 <
0;
b0 :
09
b0 8
b0 7
16
b0 5
04
03
02
11
00
b0 /
bx .
bx -
b0 ,
0+
b0 )
0(
1'
0&
1%
1$
0#
0"
1!
$end
#5000
1+
#10000
0+
#15000
1+
#20000
0+
#25000
1+
#30000
0+
#35000
1+
#40000
0+
#45000
1+
#50000
0+
#55000
1+
#60000
0+
#65000
1+
#70000
0+
#75000
10
1+
#80000
0+
#85000
1+
#90000
0+
#95000
1+
#100000
0+
#105000
1+
#110000
0+
#115000
b0 g
1+
#120000
0+
#121000
b11 j
b0 i
b0 -
b0 h
#125000
1+
#130000
1D
1K
1J
1A
b11 ,
b11 F
0+
#135000
1&
b11 )
b11 W
1_
1^
1+
#140000
0D
0K
0J
b0 ,
b0 F
0A
0+
#145000
1+
#150000
0+
#151000
b10 g
b11 -
b11 h
#155000
1+
#160000
b10100 )
b10100 W
b10 /
b10 G
0+
#161000
b11100 j
b1 i
1u
1t
b10100000 s
b10100 -
b10100 h
#165000
1+
#170000
1D
1I
1L
b0 )
b0 W
1A
b11100 ,
b11100 F
b1 /
b1 G
0+
#175000
1+
#180000
0D
0I
0L
b10100000 j
b11 i
b0 ,
b0 F
0A
0+
#185000
1+
#190000
1A
b10100000 ,
b10100000 F
b11 /
b11 G
0+
#195000
b10100000 e
1+
#200000
b111 j
b100 i
b111 r
b0 ,
b0 F
0A
0+
#205000
1+
#210000
1D
1E
1K
1J
1I
1A
b111 ,
b111 F
b100 /
b100 G
0+
#215000
0E
b1 d
b10100000 c
1\
1Y
b111 T
1V
1+
#220000
0D
0K
0J
0I
b1 g
b0 y
b0 ,
b0 F
0A
0+
#225000
b1 `
0H
b10100 X
1+
#230000
b1 )
b1 W
b1 /
b1 G
0+
#231000
b1 x
b1 h
#235000
b10011 X
b1 y
1+
#240000
0+
#245000
b10010 X
b10 y
1+
#250000
0+
#255000
b10001 X
b11 y
1+
#260000
0+
#265000
b10000 X
b100 y
1+
#270000
0+
#275000
b1111 X
b101 y
1+
#280000
0+
#285000
b1110 X
b110 y
1+
#290000
0+
#295000
b1101 X
b111 y
1+
#300000
0+
#305000
b1100 X
b1000 y
1+
#310000
0+
#315000
b1011 X
b1001 y
1+
#320000
0+
#325000
b1010 X
b1010 y
1+
#330000
0+
#335000
b1001 X
b1011 y
1+
#340000
0+
#345000
b1000 X
b1100 y
1+
#350000
0+
#355000
b111 X
b1101 y
1+
#360000
0+
#365000
b110 X
b1110 y
1+
#370000
0+
#375000
b101 X
b1111 y
1+
#380000
0+
#385000
b100 X
b10000 y
1+
#390000
0+
#395000
b11 X
b10001 y
1+
#400000
0+
#405000
b10 X
b10010 y
1+
#410000
0+
#415000
b1 X
b10011 y
1+
#420000
0+
#425000
1H
b0 X
b10100 y
1+
#430000
0+
#435000
13
0!
0$
b10 `
1#
0H
b10100 X
b10101 y
1+
#440000
0+
#445000
b10011 X
b10110 y
1+
#450000
0+
#455000
b10010 X
b10111 y
1+
#460000
0+
#465000
b10001 X
b11000 y
1+
#470000
0+
#475000
b10000 X
b11001 y
1+
#480000
0+
#485000
b1111 X
b11010 y
1+
#490000
0+
#495000
b1110 X
b11011 y
1+
#500000
0+
#505000
b1101 X
b11100 y
1+
#510000
0+
#515000
b1100 X
b11101 y
1+
#520000
0+
#525000
b1011 X
b11110 y
1+
#530000
0+
#535000
b1010 X
b11111 y
1+
#540000
0+
#545000
b1001 X
b100000 y
1+
#550000
0+
#555000
b1000 X
b100001 y
1+
#560000
0+
#565000
b111 X
b100010 y
1+
#570000
0+
#575000
b110 X
b100011 y
1+
#580000
0+
#585000
b101 X
b100100 y
1+
#590000
0+
#595000
b100 X
b100101 y
1+
#600000
0+
#605000
b11 X
b100110 y
1+
#610000
0+
#615000
b10 X
b100111 y
1+
#620000
0+
#625000
b1 X
b101000 y
1+
#630000
0+
#635000
1H
b0 X
b101001 y
1+
#640000
0+
#645000
1!
1$
b11 )
b11 W
0'
0#
b10 d
b0 `
1U
0%
0H
b10100 X
b101010 y
1+
#646000
b11 x
#650000
0+
#655000
b10011 X
b101011 y
1+
#660000
0+
#665000
b10010 X
b101100 y
1+
#670000
0+
#675000
b10001 X
b101101 y
1+
#680000
0+
#685000
b10000 X
b101110 y
1+
#690000
0+
#695000
b1111 X
b101111 y
1+
#700000
0+
#705000
b1110 X
b110000 y
1+
#710000
0+
#715000
b1101 X
b110001 y
1+
#720000
0+
#725000
b1100 X
b110010 y
1+
#730000
0+
#735000
b1011 X
b110011 y
1+
#740000
0+
#745000
b1010 X
b110100 y
1+
#750000
0+
#755000
b1001 X
b110101 y
1+
#760000
0+
#765000
b1000 X
b110110 y
1+
#770000
0+
#775000
b111 X
b110111 y
1+
#780000
0+
#785000
b110 X
b111000 y
1+
#790000
0+
#795000
b101 X
b111001 y
1+
#800000
0+
#805000
b100 X
b111010 y
1+
#810000
0+
#815000
b11 X
b111011 y
1+
#820000
0+
#825000
b10 X
b111100 y
1+
#830000
0+
#835000
b1 X
b111101 y
1+
#840000
0+
#845000
1H
b0 X
b111110 y
1+
#850000
0+
#855000
b1 `
0H
b10100 X
b111111 y
1+
#860000
0+
#865000
b10011 X
b1000000 y
1+
#870000
0+
#875000
b10010 X
b1000001 y
1+
#880000
0+
#885000
b10001 X
b1000010 y
1+
#890000
0+
#895000
b10000 X
b1000011 y
1+
#900000
0+
#905000
b1111 X
b1000100 y
1+
#910000
0+
#915000
b1110 X
b1000101 y
1+
#920000
0+
#925000
b1101 X
b1000110 y
1+
#930000
0+
#935000
b1100 X
b1000111 y
1+
#940000
0+
#945000
b1011 X
b1001000 y
1+
#950000
0+
#955000
b1010 X
b1001001 y
1+
#960000
0+
#965000
b1001 X
b1001010 y
1+
#970000
0+
#975000
b1000 X
b1001011 y
1+
#980000
0+
#985000
b111 X
b1001100 y
1+
#990000
0+
#995000
b110 X
b1001101 y
1+
#1000000
0+
#1005000
b101 X
b1001110 y
1+
#1010000
0+
#1015000
b100 X
b1001111 y
1+
#1020000
0+
#1025000
b11 X
b1010000 y
1+
#1030000
0+
#1035000
b10 X
b1010001 y
1+
#1040000
0+
#1045000
b1 X
b1010010 y
1+
#1050000
0+
#1055000
1H
b0 X
b1010011 y
1+
#1060000
0+
#1065000
b1 5
b1 <
b1 8
1'
b10 `
1%
0H
b10100 X
b1010100 y
1+
#1070000
0+
#1075000
b10011 X
b1010101 y
1+
#1080000
0+
#1085000
b10010 X
b1010110 y
1+
#1090000
0+
#1095000
b10001 X
b1010111 y
1+
#1100000
0+
#1105000
b10000 X
b1011000 y
1+
#1110000
0+
#1115000
b1111 X
b1011001 y
1+
#1120000
0+
#1125000
b1110 X
b1011010 y
1+
#1130000
0+
#1135000
b1101 X
b1011011 y
1+
#1140000
0+
#1145000
b1100 X
b1011100 y
1+
#1150000
0+
#1155000
b1011 X
b1011101 y
1+
#1160000
0+
#1165000
b1010 X
b1011110 y
1+
#1170000
0+
#1175000
b1001 X
b1011111 y
1+
#1180000
0+
#1185000
b1000 X
b1100000 y
1+
#1190000
0+
#1195000
b111 X
b1100001 y
1+
#1200000
0+
#1205000
b110 X
b1100010 y
1+
#1210000
0+
#1215000
b101 X
b1100011 y
1+
#1220000
0+
#1225000
b100 X
b1100100 y
1+
#1230000
0+
#1235000
b11 X
b1100101 y
1+
#1240000
0+
#1245000
b10 X
b1100110 y
1+
#1250000
0+
#1255000
b1 X
b1100111 y
1+
#1260000
0+
#1265000
1H
b0 X
b1101000 y
1+
#1270000
0+
#1275000
0'
b0 `
b110 T
0%
0H
b10100 X
b1101001 y
1+
#1280000
0+
#1285000
b10011 X
b1101010 y
1+
#1290000
0+
#1295000
b10010 X
b1101011 y
1+
#1300000
0+
#1305000
b10001 X
b1101100 y
1+
#1310000
0+
#1315000
b10000 X
b1101101 y
1+
#1320000
0+
#1325000
b1111 X
b1101110 y
1+
#1330000
0+
#1335000
b1110 X
b1101111 y
1+
#1340000
0+
#1345000
b1101 X
b1110000 y
1+
#1350000
0+
#1355000
b1100 X
b1110001 y
1+
#1360000
0+
#1365000
b1011 X
b1110010 y
1+
#1370000
0+
#1375000
b1010 X
b1110011 y
1+
#1380000
0+
#1385000
b1001 X
b1110100 y
1+
#1390000
0+
#1395000
b1000 X
b1110101 y
1+
#1400000
0+
#1405000
b111 X
b1110110 y
1+
#1410000
0+
#1415000
b110 X
b1110111 y
1+
#1420000
0+
#1425000
b101 X
b1111000 y
1+
#1430000
0+
#1435000
b100 X
b1111001 y
1+
#1440000
0+
#1445000
b11 X
b1111010 y
1+
#1450000
0+
#1455000
b10 X
b1111011 y
1+
#1460000
0+
#1465000
b1 X
b1111100 y
1+
#1470000
0+
#1475000
1H
b0 X
b1111101 y
1+
#1480000
0+
#1485000
0!
0$
b1 `
1#
0H
b10100 X
b1111110 y
1+
#1490000
0+
#1495000
b10011 X
b1111111 y
1+
#1500000
0+
#1505000
b10010 X
b10000000 y
1+
#1510000
0+
#1515000
b10001 X
b10000001 y
1+
#1520000
0+
#1525000
b10000 X
b10000010 y
1+
#1530000
0+
#1535000
b1111 X
b10000011 y
1+
#1540000
0+
#1545000
b1110 X
b10000100 y
1+
#1550000
0+
#1555000
b1101 X
b10000101 y
1+
#1560000
0+
#1565000
b1100 X
b10000110 y
1+
#1570000
0+
#1575000
b1011 X
b10000111 y
1+
#1580000
0+
#1585000
b1010 X
b10001000 y
1+
#1590000
0+
#1595000
b1001 X
b10001001 y
1+
#1600000
0+
#1605000
b1000 X
b10001010 y
1+
#1610000
0+
#1615000
b111 X
b10001011 y
1+
#1620000
0+
#1625000
b110 X
b10001100 y
1+
#1630000
0+
#1635000
b101 X
b10001101 y
1+
#1640000
0+
#1645000
b100 X
b10001110 y
1+
#1650000
0+
#1655000
b11 X
b10001111 y
1+
#1660000
0+
#1665000
b10 X
b10010000 y
1+
#1670000
0+
#1675000
b1 X
b10010001 y
1+
#1680000
0+
#1685000
1H
b0 X
b10010010 y
1+
#1690000
0+
#1695000
b10 5
b10 <
b10 8
1'
b10 `
1%
0H
b10100 X
b10010011 y
1+
#1700000
0+
#1705000
b10011 X
b10010100 y
1+
#1710000
0+
#1715000
b10010 X
b10010101 y
1+
#1720000
0+
#1725000
b10001 X
b10010110 y
1+
#1730000
0+
#1735000
b10000 X
b10010111 y
1+
#1740000
0+
#1745000
b1111 X
b10011000 y
1+
#1750000
0+
#1755000
b1110 X
b10011001 y
1+
#1760000
0+
#1765000
b1101 X
b10011010 y
1+
#1770000
0+
#1775000
b1100 X
b10011011 y
1+
#1780000
0+
#1785000
b1011 X
b10011100 y
1+
#1790000
0+
#1795000
b1010 X
b10011101 y
1+
#1800000
0+
#1805000
b1001 X
b10011110 y
1+
#1810000
0+
#1815000
b1000 X
b10011111 y
1+
#1820000
0+
#1825000
b111 X
b10100000 y
1+
#1830000
0+
#1835000
b110 X
b10100001 y
1+
#1840000
0+
#1845000
b101 X
b10100010 y
1+
#1850000
0+
#1855000
b100 X
b10100011 y
1+
#1860000
0+
#1865000
b11 X
b10100100 y
1+
#1870000
0+
#1875000
b10 X
b10100101 y
1+
#1880000
0+
#1885000
b1 X
b10100110 y
1+
#1890000
0+
#1895000
1H
b0 X
b10100111 y
1+
#1900000
0+
#1905000
0'
b0 `
b101 T
0%
0H
b10100 X
b10101000 y
1+
#1910000
0+
#1915000
b10011 X
b10101001 y
1+
#1920000
0+
#1925000
b10010 X
b10101010 y
1+
#1930000
0+
#1935000
b10001 X
b10101011 y
1+
#1940000
0+
#1945000
b10000 X
b10101100 y
1+
#1950000
0+
#1955000
b1111 X
b10101101 y
1+
#1960000
0+
#1965000
b1110 X
b10101110 y
1+
#1970000
0+
#1975000
b1101 X
b10101111 y
1+
#1980000
0+
#1985000
b1100 X
b10110000 y
1+
#1990000
0+
#1995000
b1011 X
b10110001 y
1+
#2000000
0+
#2005000
b1010 X
b10110010 y
1+
#2010000
0+
#2015000
b1001 X
b10110011 y
1+
#2020000
0+
#2025000
b1000 X
b10110100 y
1+
#2030000
0+
#2035000
b111 X
b10110101 y
1+
#2040000
0+
#2045000
b110 X
b10110110 y
1+
#2050000
0+
#2055000
b101 X
b10110111 y
1+
#2060000
0+
#2065000
b100 X
b10111000 y
1+
#2070000
0+
#2075000
b11 X
b10111001 y
1+
#2080000
0+
#2085000
b10 X
b10111010 y
1+
#2090000
0+
#2095000
b1 X
b10111011 y
1+
#2100000
0+
#2105000
1H
b0 X
b10111100 y
1+
#2110000
0+
#2115000
1!
1$
b1 `
0#
0H
b10100 X
b10111101 y
1+
#2120000
0+
#2125000
b10011 X
b10111110 y
1+
#2130000
0+
#2135000
b10010 X
b10111111 y
1+
#2140000
0+
#2145000
b10001 X
b11000000 y
1+
#2150000
0+
#2155000
b10000 X
b11000001 y
1+
#2160000
0+
#2165000
b1111 X
b11000010 y
1+
#2170000
0+
#2175000
b1110 X
b11000011 y
1+
#2180000
0+
#2185000
b1101 X
b11000100 y
1+
#2190000
0+
#2195000
b1100 X
b11000101 y
1+
#2200000
0+
#2205000
b1011 X
b11000110 y
1+
#2210000
0+
#2215000
b1010 X
b11000111 y
1+
#2220000
0+
#2225000
b1001 X
b11001000 y
1+
#2230000
0+
#2235000
b1000 X
b11001001 y
1+
#2240000
0+
#2245000
b111 X
b11001010 y
1+
#2250000
0+
#2255000
b110 X
b11001011 y
1+
#2260000
0+
#2265000
b101 X
b11001100 y
1+
#2270000
0+
#2275000
b100 X
b11001101 y
1+
#2280000
0+
#2285000
b11 X
b11001110 y
1+
#2290000
0+
#2295000
b10 X
b11001111 y
1+
#2300000
0+
#2305000
b1 X
b11010000 y
1+
#2310000
0+
#2315000
1H
b0 X
b11010001 y
1+
#2320000
0+
#2325000
b11 5
b101 <
b101 8
1'
b10 `
1%
0H
b10100 X
b11010010 y
1+
#2330000
0+
#2335000
b10011 X
b11010011 y
1+
#2340000
0+
#2345000
b10010 X
b11010100 y
1+
#2350000
0+
#2355000
b10001 X
b11010101 y
1+
#2360000
0+
#2365000
b10000 X
b11010110 y
1+
#2370000
0+
#2375000
b1111 X
b11010111 y
1+
#2380000
0+
#2385000
b1110 X
b11011000 y
1+
#2390000
0+
#2395000
b1101 X
b11011001 y
1+
#2400000
0+
#2405000
b1100 X
b11011010 y
1+
#2410000
0+
#2415000
b1011 X
b11011011 y
1+
#2420000
0+
#2425000
b1010 X
b11011100 y
1+
#2430000
0+
#2435000
b1001 X
b11011101 y
1+
#2440000
0+
#2445000
b1000 X
b11011110 y
1+
#2450000
0+
#2455000
b111 X
b11011111 y
1+
#2460000
0+
#2465000
b110 X
b11100000 y
1+
#2470000
0+
#2475000
b101 X
b11100001 y
1+
#2480000
0+
#2485000
b100 X
b11100010 y
1+
#2490000
0+
#2495000
b11 X
b11100011 y
1+
#2500000
0+
#2505000
b10 X
b11100100 y
1+
#2510000
0+
#2515000
b1 X
b11100101 y
1+
#2520000
0+
#2525000
1H
b0 X
b11100110 y
1+
#2530000
0+
#2535000
0'
b0 `
b100 T
0%
0H
b10100 X
b11100111 y
1+
#2540000
0+
#2545000
b10011 X
b11101000 y
1+
#2550000
0+
#2555000
b10010 X
b11101001 y
1+
#2560000
0+
#2565000
b10001 X
b11101010 y
1+
#2570000
0+
#2575000
b10000 X
b11101011 y
1+
#2580000
0+
#2585000
b1111 X
b11101100 y
1+
#2590000
0+
#2595000
b1110 X
b11101101 y
1+
#2600000
0+
#2605000
b1101 X
b11101110 y
1+
#2610000
0+
#2615000
b1100 X
b11101111 y
1+
#2620000
0+
#2625000
b1011 X
b11110000 y
1+
#2630000
0+
#2635000
b1010 X
b11110001 y
1+
#2640000
0+
#2645000
b1001 X
b11110010 y
1+
#2650000
0+
#2655000
b1000 X
b11110011 y
1+
#2660000
0+
#2665000
b111 X
b11110100 y
1+
#2670000
0+
#2675000
b110 X
b11110101 y
1+
#2680000
0+
#2685000
b101 X
b11110110 y
1+
#2690000
0+
#2695000
b100 X
b11110111 y
1+
#2700000
0+
#2705000
b11 X
b11111000 y
1+
#2710000
0+
#2715000
b10 X
b11111001 y
1+
#2720000
0+
#2725000
b1 X
b11111010 y
1+
#2730000
0+
#2735000
1H
b0 X
b11111011 y
1+
#2740000
0+
#2745000
0!
0$
b1 `
1#
0H
b10100 X
b11111100 y
1+
#2750000
0+
#2755000
b10011 X
b11111101 y
1+
#2760000
0+
#2765000
b10010 X
b11111110 y
1+
#2770000
0+
#2775000
b10001 X
b11111111 y
1+
#2780000
0+
#2785000
b10000 X
b100000000 y
1+
#2790000
0+
#2795000
b1111 X
b100000001 y
1+
#2800000
0+
#2805000
b1110 X
b100000010 y
1+
#2810000
0+
#2815000
b1101 X
b100000011 y
1+
#2820000
0+
#2825000
b1100 X
b100000100 y
1+
#2830000
0+
#2835000
b1011 X
b100000101 y
1+
#2840000
0+
#2845000
b1010 X
b100000110 y
1+
#2850000
0+
#2855000
b1001 X
b100000111 y
1+
#2860000
0+
#2865000
b1000 X
b100001000 y
1+
#2870000
0+
#2875000
b111 X
b100001001 y
1+
#2880000
0+
#2885000
b110 X
b100001010 y
1+
#2890000
0+
#2895000
b101 X
b100001011 y
1+
#2900000
0+
#2905000
b100 X
b100001100 y
1+
#2910000
0+
#2915000
b11 X
b100001101 y
1+
#2920000
0+
#2925000
b10 X
b100001110 y
1+
#2930000
0+
#2935000
b1 X
b100001111 y
1+
#2940000
0+
#2945000
1H
b0 X
b100010000 y
1+
#2950000
0+
#2955000
b100 5
b1010 <
b1010 8
1'
b10 `
1%
0H
b10100 X
b100010001 y
1+
#2960000
0+
#2965000
b10011 X
b100010010 y
1+
#2970000
0+
#2975000
b10010 X
b100010011 y
1+
#2980000
0+
#2985000
b10001 X
b100010100 y
1+
#2990000
0+
#2995000
b10000 X
b100010101 y
1+
#3000000
0+
#3005000
b1111 X
b100010110 y
1+
#3010000
0+
#3015000
b1110 X
b100010111 y
1+
#3020000
0+
#3025000
b1101 X
b100011000 y
1+
#3030000
0+
#3035000
b1100 X
b100011001 y
1+
#3040000
0+
#3045000
b1011 X
b100011010 y
1+
#3050000
0+
#3055000
b1010 X
b100011011 y
1+
#3060000
0+
#3065000
b1001 X
b100011100 y
1+
#3070000
0+
#3075000
b1000 X
b100011101 y
1+
#3080000
0+
#3085000
b111 X
b100011110 y
1+
#3090000
0+
#3095000
b110 X
b100011111 y
1+
#3100000
0+
#3105000
b101 X
b100100000 y
1+
#3110000
0+
#3115000
b100 X
b100100001 y
1+
#3120000
0+
#3125000
b11 X
b100100010 y
1+
#3130000
0+
#3135000
b10 X
b100100011 y
1+
#3140000
0+
#3145000
b1 X
b100100100 y
1+
#3150000
0+
#3155000
1H
b0 X
b100100101 y
1+
#3160000
0+
#3165000
0'
b0 `
b11 T
0%
0H
b10100 X
b100100110 y
1+
#3170000
0+
#3175000
b10011 X
b100100111 y
1+
#3180000
0+
#3185000
b10010 X
b100101000 y
1+
#3190000
0+
#3195000
b10001 X
b100101001 y
1+
#3200000
0+
#3205000
b10000 X
b100101010 y
1+
#3210000
0+
#3215000
b1111 X
b100101011 y
1+
#3220000
0+
#3225000
b1110 X
b100101100 y
1+
#3230000
0+
#3235000
b1101 X
b100101101 y
1+
#3240000
0+
#3245000
b1100 X
b100101110 y
1+
#3250000
0+
#3255000
b1011 X
b100101111 y
1+
#3260000
0+
#3265000
b1010 X
b100110000 y
1+
#3270000
0+
#3275000
b1001 X
b100110001 y
1+
#3280000
0+
#3285000
b1000 X
b100110010 y
1+
#3290000
0+
#3295000
b111 X
b100110011 y
1+
#3300000
0+
#3305000
b110 X
b100110100 y
1+
#3310000
0+
#3315000
b101 X
b100110101 y
1+
#3320000
0+
#3325000
b100 X
b100110110 y
1+
#3330000
0+
#3335000
b11 X
b100110111 y
1+
#3340000
0+
#3345000
b10 X
b100111000 y
1+
#3350000
0+
#3355000
b1 X
b100111001 y
1+
#3360000
0+
#3365000
1H
b0 X
b100111010 y
1+
#3370000
0+
#3375000
b1 `
0H
b10100 X
b100111011 y
1+
#3380000
0+
#3385000
b10011 X
b100111100 y
1+
#3390000
0+
#3395000
b10010 X
b100111101 y
1+
#3400000
0+
#3405000
b10001 X
b100111110 y
1+
#3410000
0+
#3415000
b10000 X
b100111111 y
1+
#3420000
0+
#3425000
b1111 X
b101000000 y
1+
#3430000
0+
#3435000
b1110 X
b101000001 y
1+
#3440000
0+
#3445000
b1101 X
b101000010 y
1+
#3450000
0+
#3455000
b1100 X
b101000011 y
1+
#3460000
0+
#3465000
b1011 X
b101000100 y
1+
#3470000
0+
#3475000
b1010 X
b101000101 y
1+
#3480000
0+
#3485000
b1001 X
b101000110 y
1+
#3490000
0+
#3495000
b1000 X
b101000111 y
1+
#3500000
0+
#3505000
b111 X
b101001000 y
1+
#3510000
0+
#3515000
b110 X
b101001001 y
1+
#3520000
0+
#3525000
b101 X
b101001010 y
1+
#3530000
0+
#3535000
b100 X
b101001011 y
1+
#3540000
0+
#3545000
b11 X
b101001100 y
1+
#3550000
0+
#3555000
b10 X
b101001101 y
1+
#3560000
0+
#3565000
b1 X
b101001110 y
1+
#3570000
0+
#3575000
1H
b0 X
b101001111 y
1+
#3580000
0+
#3585000
b101 5
b10100 <
b10100 8
1'
b10 `
1%
0H
b10100 X
b101010000 y
1+
#3590000
0+
#3595000
b10011 X
b101010001 y
1+
#3600000
0+
#3605000
b10010 X
b101010010 y
1+
#3610000
0+
#3615000
b10001 X
b101010011 y
1+
#3620000
0+
#3625000
b10000 X
b101010100 y
1+
#3630000
0+
#3635000
b1111 X
b101010101 y
1+
#3640000
0+
#3645000
b1110 X
b101010110 y
1+
#3650000
0+
#3655000
b1101 X
b101010111 y
1+
#3660000
0+
#3665000
b1100 X
b101011000 y
1+
#3670000
0+
#3675000
b1011 X
b101011001 y
1+
#3680000
0+
#3685000
b1010 X
b101011010 y
1+
#3690000
0+
#3695000
b1001 X
b101011011 y
1+
#3700000
0+
#3705000
b1000 X
b101011100 y
1+
#3710000
0+
#3715000
b111 X
b101011101 y
1+
#3720000
0+
#3725000
b110 X
b101011110 y
1+
#3730000
0+
#3735000
b101 X
b101011111 y
1+
#3740000
0+
#3745000
b100 X
b101100000 y
1+
#3750000
0+
#3755000
b11 X
b101100001 y
1+
#3760000
0+
#3765000
b10 X
b101100010 y
1+
#3770000
0+
#3775000
b1 X
b101100011 y
1+
#3780000
0+
#3785000
1H
b0 X
b101100100 y
1+
#3790000
0+
#3795000
0'
b0 `
b10 T
0%
0H
b10100 X
b101100101 y
1+
#3800000
0+
#3805000
b10011 X
b101100110 y
1+
#3810000
0+
#3815000
b10010 X
b101100111 y
1+
#3820000
0+
#3825000
b10001 X
b101101000 y
1+
#3830000
0+
#3835000
b10000 X
b101101001 y
1+
#3840000
0+
#3845000
b1111 X
b101101010 y
1+
#3850000
0+
#3855000
b1110 X
b101101011 y
1+
#3860000
0+
#3865000
b1101 X
b101101100 y
1+
#3870000
0+
#3875000
b1100 X
b101101101 y
1+
#3880000
0+
#3885000
b1011 X
b101101110 y
1+
#3890000
0+
#3895000
b1010 X
b101101111 y
1+
#3900000
0+
#3905000
b1001 X
b101110000 y
1+
#3910000
0+
#3915000
b1000 X
b101110001 y
1+
#3920000
0+
#3925000
b111 X
b101110010 y
1+
#3930000
0+
#3935000
b110 X
b101110011 y
1+
#3940000
0+
#3945000
b101 X
b101110100 y
1+
#3950000
0+
#3955000
b100 X
b101110101 y
1+
#3960000
0+
#3965000
b11 X
b101110110 y
1+
#3970000
0+
#3975000
b10 X
b101110111 y
1+
#3980000
0+
#3985000
b1 X
b101111000 y
1+
#3990000
0+
#3995000
1H
b0 X
b101111001 y
1+
#4000000
0+
#4005000
b1 `
0H
b10100 X
b101111010 y
1+
#4010000
0+
#4015000
b10011 X
b101111011 y
1+
#4020000
0+
#4025000
b10010 X
b101111100 y
1+
#4030000
0+
#4035000
b10001 X
b101111101 y
1+
#4040000
0+
#4045000
b10000 X
b101111110 y
1+
#4050000
0+
#4055000
b1111 X
b101111111 y
1+
#4060000
0+
#4065000
b1110 X
b110000000 y
1+
#4070000
0+
#4075000
b1101 X
b110000001 y
1+
#4080000
0+
#4085000
b1100 X
b110000010 y
1+
#4090000
0+
#4095000
b1011 X
b110000011 y
1+
#4100000
0+
#4105000
b1010 X
b110000100 y
1+
#4110000
0+
#4115000
b1001 X
b110000101 y
1+
#4120000
0+
#4125000
b1000 X
b110000110 y
1+
#4130000
0+
#4135000
b111 X
b110000111 y
1+
#4140000
0+
#4145000
b110 X
b110001000 y
1+
#4150000
0+
#4155000
b101 X
b110001001 y
1+
#4160000
0+
#4165000
b100 X
b110001010 y
1+
#4170000
0+
#4175000
b11 X
b110001011 y
1+
#4180000
0+
#4185000
b10 X
b110001100 y
1+
#4190000
0+
#4195000
b1 X
b110001101 y
1+
#4200000
0+
#4205000
1H
b0 X
b110001110 y
1+
#4210000
0+
#4215000
b110 5
b101000 <
b101000 8
1'
b10 `
1%
0H
b10100 X
b110001111 y
1+
#4220000
0+
#4225000
b10011 X
b110010000 y
1+
#4230000
0+
#4235000
b10010 X
b110010001 y
1+
#4240000
0+
