verilog/tb/tb_i2c_master_ctrl_min.vcd
$date
	Sat May 02 03:41:26 2026
$end
$version
	Icarus Verilog
$end
$timescale
	1ps
$end
$scope module tb_i2c_master_ctrl_min $end
$var wire 1 ! sda_in $end
$var wire 1 " sda_out $end
$var wire 1 # sda_oe $end
$var wire 1 $ sda_bus $end
$var wire 1 % scl_out $end
$var wire 1 & scl_oe $end
$var wire 1 ' scl_bus $end
$var wire 1 ( interrupt $end
$var wire 16 ) cpu_dout [15:0] $end
$var reg 1 * clk $end
$var reg 16 + cpu_din [15:0] $end
$var reg 16 , data_reg [15:0] $end
$var reg 4 - reg_addr [3:0] $end
$var reg 1 . rst_n $end
$var reg 1 / slave_ack_enable $end
$var reg 1 0 slave_active $end
$var reg 1 1 slave_enabled $end
$var reg 1 2 slave_read_mode $end
$var reg 8 3 slave_rx_byte [7:0] $end
$var reg 1 4 slave_sda_drive_low $end
$var reg 8 5 slave_tx_byte [7:0] $end
$var reg 16 6 status [15:0] $end
$var reg 1 7 wr_en $end
$var integer 32 8 slave_bit_index [31:0] $end
$var integer 32 9 slave_scl_count [31:0] $end
$scope module dut $end
$var wire 1 * clk $end
$var wire 1 : cmd_any $end
$var wire 1 ; cmd_hit $end
$var wire 16 < cpu_din [15:0] $end
$var wire 1 ( interrupt $end
$var wire 4 = reg_addr [3:0] $end
$var wire 1 . rst_n $end
$var wire 1 & scl_oe $end
$var wire 1 ! sda_in $end
$var wire 1 " sda_out $end
$var wire 1 7 wr_en $end
$var wire 1 > tick $end
$var wire 1 ? cmd_write $end
$var wire 1 @ cmd_stop $end
$var wire 1 A cmd_start $end
$var wire 1 B cmd_read $end
$var parameter 8 C I2C_DIV $end
$var parameter 3 D ST_ACK $end
$var parameter 3 E ST_BIT $end
$var parameter 3 F ST_IDLE $end
$var parameter 3 G ST_START $end
$var parameter 3 H ST_STOP $end
$var reg 1 I ack_error $end
$var reg 3 J bit_count [2:0] $end
$var reg 1 K bus_active $end
$var reg 1 L busy $end
$var reg 16 M cpu_dout [15:0] $end
$var reg 8 N divcnt [7:0] $end
$var reg 1 O do_byte $end
$var reg 1 P do_nack $end
$var reg 1 Q do_read $end
$var reg 1 R do_stop $end
$var reg 1 S done $end
$var reg 1 T enable $end
$var reg 1 U irq_enable $end
$var reg 2 V phase [1:0] $end
$var reg 8 W rx_data [7:0] $end
$var reg 1 X rx_valid $end
$var reg 1 % scl_out $end
$var reg 1 # sda_oe $end
$var reg 8 Y shift [7:0] $end
$var reg 3 Z state [2:0] $end
$var reg 8 [ tx_data [7:0] $end
$upscope $end
$scope task clear_status $end
$upscope $end
$scope task cpu_read $end
$var reg 4 \ addr [3:0] $end
$var reg 16 ] data [15:0] $end
$upscope $end
$scope task cpu_write $end
$var reg 4 ^ addr [3:0] $end
$var reg 16 _ data [15:0] $end
$upscope $end
$scope task prepare_slave_read $end
$var reg 8 ` data [7:0] $end
$upscope $end
$scope task prepare_slave_write_ack $end
$upscope $end
$scope task prepare_slave_write_nack $end
$upscope $end
$scope task wait_done $end
$var reg 16 a st [15:0] $end
$var integer 32 b timeout [31:0] $end
$upscope $end
$upscope $end
$enddefinitions $end
$comment Show the parameter values. $end
$dumpall
b100 H
b1 G
b0 F
b10 E
b11 D
b10100 C
$end
#0
$dumpvars
bx b
bx a
bx `
bx _
bx ^
bx ]
bx \
b0 [
b0 Z
b0 Y
0X
b0 W
b0 V
0U
0T
0S
0R
0Q
0P
0O
b0 N
b0 M
0L
0K
b0 J
0I
0B
0A
0@
0?
1>
b0 =
b0 <
0;
0:
b0 9
b111 8
07
bx 6
b0 5
04
b0 3
02
01
00
1/
0.
b0 -
bx ,
b0 +
0*
b0 )
0(
1'
0&
1%
1$
0#
0"
1!
$end
#5000
1*
#10000
0*
#15000
1*
#20000
0*
#25000
1*
#30000
0*
#35000
1*
#40000
0*
#45000
1*
#50000
0*
#55000
1*
#60000
0*
#65000
1*
#70000
0*
#75000
1.
1*
#80000
0*
#85000
1*
#90000
0*
#95000
1*
#100000
0*
#105000
1*
#110000
0*
#115000
b1 _
b0 ^
1*
#120000
1:
1A
17
b1 +
b1 <
0*
#125000
1&
b1 )
b1 M
1T
1*
#130000
0:
0A
b11100 _
b1 ^
b0 +
b0 <
07
0*
#135000
1*
#140000
1:
1?
1B
b0 )
b0 M
17
b11100 +
b11100 <
b1 -
b1 =
0*
#145000
1*
#150000
0:
0?
0B
b10100101 _
b11 ^
11
b0 +
b0 <
07
0*
#155000
1*
#160000
1:
1A
1?
17
b10100101 +
b10100101 <
b11 -
b11 =
0*
#165000
b10100101 [
1*
#170000
0:
0A
0?
b111 _
b100 ^
b0 +
b0 <
07
0*
#175000
1*
#180000
1:
1;
1A
1@
1?
17
b111 +
b111 <
b100 -
b100 =
0*
#185000
0;
b1 Z
b10100101 Y
1R
1O
b111 J
1L
1*
#190000
0:
0A
0@
0?
b1 \
b0 b
b0 +
b0 <
07
0*
#195000
b1 V
0>
b10100 N
1*
#200000
b1 )
b1 M
b1 -
b1 =
0*
#201000
b1 a
b1 ]
#205000
b10011 N
b1 b
1*
#210000
0*
#215000
b10010 N
b10 b
1*
#220000
0*
#225000
b10001 N
b11 b
1*
#230000
0*
#235000
b10000 N
b100 b
1*
#240000
0*
#245000
b1111 N
b101 b
1*
#250000
0*
#255000
b1110 N
b110 b
1*
#260000
0*
#265000
b1101 N
b111 b
1*
#270000
0*
#275000
b1100 N
b1000 b
1*
#280000
0*
#285000
b1011 N
b1001 b
1*
#290000
0*
#295000
b1010 N
b1010 b
1*
#300000
0*
#305000
b1001 N
b1011 b
1*
#310000
0*
#315000
b1000 N
b1100 b
1*
#320000
0*
#325000
b111 N
b1101 b
1*
#330000
0*
#335000
b110 N
b1110 b
1*
#340000
0*
#345000
b101 N
b1111 b
1*
#350000
0*
#355000
b100 N
b10000 b
1*
#360000
0*
#365000
b11 N
b10001 b
1*
#370000
0*
#375000
b10 N
b10010 b
1*
#380000
0*
#385000
b1 N
b10011 b
1*
#390000
0*
#395000
1>
b0 N
b10100 b
1*
#400000
0*
#405000
10
0!
0$
b10 V
1#
0>
b10100 N
b10101 b
1*
#410000
0*
#415000
b10011 N
b10110 b
1*
#420000
0*
#425000
b10010 N
b10111 b
1*
#430000
0*
#435000
b10001 N
b11000 b
1*
#440000
0*
#445000
b10000 N
b11001 b
1*
#450000
0*
#455000
b1111 N
b11010 b
1*
#460000
0*
#465000
b1110 N
b11011 b
1*
#470000
0*
#475000
b1101 N
b11100 b
1*
#480000
0*
#485000
b1100 N
b11101 b
1*
#490000
0*
#495000
b1011 N
b11110 b
1*
#500000
0*
#505000
b1010 N
b11111 b
1*
#510000
0*
#515000
b1001 N
b100000 b
1*
#520000
0*
#525000
b1000 N
b100001 b
1*
#530000
0*
#535000
b111 N
b100010 b
1*
#540000
0*
#545000
b110 N
b100011 b
1*
#550000
0*
#555000
b101 N
b100100 b
1*
#560000
0*
#565000
b100 N
b100101 b
1*
#570000
0*
#575000
b11 N
b100110 b
1*
#580000
0*
#585000
b10 N
b100111 b
1*
#590000
0*
#595000
b1 N
b101000 b
1*
#600000
0*
#605000
1>
b0 N
b101001 b
1*
#610000
0*
#615000
1!
1$
b11 )
b11 M
0'
0#
b10 Z
b0 V
1K
0%
0>
b10100 N
b101010 b
1*
#616000
b11 a
#620000
0*
#625000
b10011 N
b101011 b
1*
#630000
0*
#635000
b10010 N
b101100 b
1*
#640000
0*
#645000
b10001 N
b101101 b
1*
#650000
0*
#655000
b10000 N
b101110 b
1*
#660000
0*
#665000
b1111 N
b101111 b
1*
#670000
0*
#675000
b1110 N
b110000 b
1*
#680000
0*
#685000
b1101 N
b110001 b
1*
#690000
0*
#695000
b1100 N
b110010 b
1*
#700000
0*
#705000
b1011 N
b110011 b
1*
#710000
0*
#715000
b1010 N
b110100 b
1*
#720000
0*
#725000
b1001 N
b110101 b
1*
#730000
0*
#735000
b1000 N
b110110 b
1*
#740000
0*
#745000
b111 N
b110111 b
1*
#750000
0*
#755000
b110 N
b111000 b
1*
#760000
0*
#765000
b101 N
b111001 b
1*
#770000
0*
#775000
b100 N
b111010 b
1*
#780000
0*
#785000
b11 N
b111011 b
1*
#790000
0*
#795000
b10 N
b111100 b
1*
#800000
0*
#805000
b1 N
b111101 b
1*
#810000
0*
#815000
1>
b0 N
b111110 b
1*
#820000
0*
#825000
b1 V
0>
b10100 N
b111111 b
1*
#830000
0*
#835000
b10011 N
b1000000 b
1*
#840000
0*
#845000
b10010 N
b1000001 b
1*
#850000
0*
#855000
b10001 N
b1000010 b
1*
#860000
0*
#865000
b10000 N
b1000011 b
1*
#870000
0*
#875000
b1111 N
b1000100 b
1*
#880000
0*
#885000
b1110 N
b1000101 b
1*
#890000
0*
#895000
b1101 N
b1000110 b
1*
#900000
0*
#905000
b1100 N
b1000111 b
1*
#910000
0*
#915000
b1011 N
b1001000 b
1*
#920000
0*
#925000
b1010 N
b1001001 b
1*
#930000
0*
#935000
b1001 N
b1001010 b
1*
#940000
0*
#945000
b1000 N
b1001011 b
1*
#950000
0*
#955000
b111 N
b1001100 b
1*
#960000
0*
#965000
b110 N
b1001101 b
1*
#970000
0*
#975000
b101 N
b1001110 b
1*
#980000
0*
#985000
b100 N
b1001111 b
1*
#990000
0*
#995000
b11 N
b1010000 b
1*
#1000000
0*
#1005000
b10 N
b1010001 b
1*
#1010000
0*
#1015000
b1 N
b1010010 b
1*
#1020000
0*
#1025000
1>
b0 N
b1010011 b
1*
#1030000
0*
#1035000
b1 9
b1 3
1'
b10 V
1%
0>
b10100 N
b1010100 b
1*
#1040000
0*
#1045000
b10011 N
b1010101 b
1*
#1050000
0*
#1055000
b10010 N
b1010110 b
1*
#1060000
0*
#1065000
b10001 N
b1010111 b
1*
#1070000
0*
#1075000
b10000 N
b1011000 b
1*
#1080000
0*
#1085000
b1111 N
b1011001 b
1*
#1090000
0*
#1095000
b1110 N
b1011010 b
1*
#1100000
0*
#1105000
b1101 N
b1011011 b
1*
#1110000
0*
#1115000
b1100 N
b1011100 b
1*
#1120000
0*
#1125000
b1011 N
b1011101 b
1*
#1130000
0*
#1135000
b1010 N
b1011110 b
1*
#1140000
0*
#1145000
b1001 N
b1011111 b
1*
#1150000
0*
#1155000
b1000 N
b1100000 b
1*
#1160000
0*
#1165000
b111 N
b1100001 b
1*
#1170000
0*
#1175000
b110 N
b1100010 b
1*
#1180000
0*
#1185000
b101 N
b1100011 b
1*
#1190000
0*
#1195000
b100 N
b1100100 b
1*
#1200000
0*
#1205000
b11 N
b1100101 b
1*
#1210000
0*
#1215000
b10 N
b1100110 b
1*
#1220000
0*
#1225000
b1 N
b1100111 b
1*
#1230000
0*
#1235000
1>
b0 N
b1101000 b
1*
#1240000
0*
#1245000
0'
b0 V
b110 J
0%
0>
b10100 N
b1101001 b
1*
#1250000
0*
#1255000
b10011 N
b1101010 b
1*
#1260000
0*
#1265000
b10010 N
b1101011 b
1*
#1270000
0*
#1275000
b10001 N
b1101100 b
1*
#1280000
0*
#1285000
b10000 N
b1101101 b
1*
#1290000
0*
#1295000
b1111 N
b1101110 b
1*
#1300000
0*
#1305000
b1110 N
b1101111 b
1*
#1310000
0*
#1315000
b1101 N
b1110000 b
1*
#1320000
0*
#1325000
b1100 N
b1110001 b
1*
#1330000
0*
#1335000
b1011 N
b1110010 b
1*
#1340000
0*
#1345000
b1010 N
b1110011 b
1*
#1350000
0*
#1355000
b1001 N
b1110100 b
1*
#1360000
0*
#1365000
b1000 N
b1110101 b
1*
#1370000
0*
#1375000
b111 N
b1110110 b
1*
#1380000
0*
#1385000
b110 N
b1110111 b
1*
#1390000
0*
#1395000
b101 N
b1111000 b
1*
#1400000
0*
#1405000
b100 N
b1111001 b
1*
#1410000
0*
#1415000
b11 N
b1111010 b
1*
#1420000
0*
#1425000
b10 N
b1111011 b
1*
#1430000
0*
#1435000
b1 N
b1111100 b
1*
#1440000
0*
#1445000
1>
b0 N
b1111101 b
1*
#1450000
0*
#1455000
0!
0$
b1 V
1#
0>
b10100 N
b1111110 b
1*
#1460000
0*
#1465000
b10011 N
b1111111 b
1*
#1470000
0*
#1475000
b10010 N
b10000000 b
1*
#1480000
0*
#1485000
b10001 N
b10000001 b
1*
#1490000
0*
#1495000
b10000 N
b10000010 b
1*
#1500000
0*
#1505000
b1111 N
b10000011 b
1*
#1510000
0*
#1515000
b1110 N
b10000100 b
1*
#1520000
0*
#1525000
b1101 N
b10000101 b
1*
#1530000
0*
#1535000
b1100 N
b10000110 b
1*
#1540000
0*
#1545000
b1011 N
b10000111 b
1*
#1550000
0*
#1555000
b1010 N
b10001000 b
1*
#1560000
0*
#1565000
b1001 N
b10001001 b
1*
#1570000
0*
#1575000
b1000 N
b10001010 b
1*
#1580000
0*
#1585000
b111 N
b10001011 b
1*
#1590000
0*
#1595000
b110 N
b10001100 b
1*
#1600000
0*
#1605000
b101 N
b10001101 b
1*
#1610000
0*
#1615000
b100 N
b10001110 b
1*
#1620000
0*
#1625000
b11 N
b10001111 b
1*
#1630000
0*
#1635000
b10 N
b10010000 b
1*
#1640000
0*
#1645000
b1 N
b10010001 b
1*
#1650000
0*
#1655000
1>
b0 N
b10010010 b
1*
#1660000
0*
#1665000
b10 9
b10 3
1'
b10 V
1%
0>
b10100 N
b10010011 b
1*
#1670000
0*
#1675000
b10011 N
b10010100 b
1*
#1680000
0*
#1685000
b10010 N
b10010101 b
1*
#1690000
0*
#1695000
b10001 N
b10010110 b
1*
#1700000
0*
#1705000
b10000 N
b10010111 b
1*
#1710000
0*
#1715000
b1111 N
b10011000 b
1*
#1720000
0*
#1725000
b1110 N
b10011001 b
1*
#1730000
0*
#1735000
b1101 N
b10011010 b
1*
#1740000
0*
#1745000
b1100 N
b10011011 b
1*
#1750000
0*
#1755000
b1011 N
b10011100 b
1*
#1760000
0*
#1765000
b1010 N
b10011101 b
1*
#1770000
0*
#1775000
b1001 N
b10011110 b
1*
#1780000
0*
#1785000
b1000 N
b10011111 b
1*
#1790000
0*
#1795000
b111 N
b10100000 b
1*
#1800000
0*
#1805000
b110 N
b10100001 b
1*
#1810000
0*
#1815000
b101 N
b10100010 b
1*
#1820000
0*
#1825000
b100 N
b10100011 b
1*
#1830000
0*
#1835000
b11 N
b10100100 b
1*
#1840000
0*
#1845000
b10 N
b10100101 b
1*
#1850000
0*
#1855000
b1 N
b10100110 b
1*
#1860000
0*
#1865000
1>
b0 N
b10100111 b
1*
#1870000
0*
#1875000
0'
b0 V
b101 J
0%
0>
b10100 N
b10101000 b
1*
#1880000
0*
#1885000
b10011 N
b10101001 b
1*
#1890000
0*
#1895000
b10010 N
b10101010 b
1*
#1900000
0*
#1905000
b10001 N
b10101011 b
1*
#1910000
0*
#1915000
b10000 N
b10101100 b
1*
#1920000
0*
#1925000
b1111 N
b10101101 b
1*
#1930000
0*
#1935000
b1110 N
b10101110 b
1*
#1940000
0*
#1945000
b1101 N
b10101111 b
1*
#1950000
0*
#1955000
b1100 N
b10110000 b
1*
#1960000
0*
#1965000
b1011 N
b10110001 b
1*
#1970000
0*
#1975000
b1010 N
b10110010 b
1*
#1980000
0*
#1985000
b1001 N
b10110011 b
1*
#1990000
0*
#1995000
b1000 N
b10110100 b
1*
#2000000
0*
#2005000
b111 N
b10110101 b
1*
#2010000
0*
#2015000
b110 N
b10110110 b
1*
#2020000
0*
#2025000
b101 N
b10110111 b
1*
#2030000
0*
#2035000
b100 N
b10111000 b
1*
#2040000
0*
#2045000
b11 N
b10111001 b
1*
#2050000
0*
#2055000
b10 N
b10111010 b
1*
#2060000
0*
#2065000
b1 N
b10111011 b
1*
#2070000
0*
#2075000
1>
b0 N
b10111100 b
1*
#2080000
0*
#2085000
1!
1$
b1 V
0#
0>
b10100 N
b10111101 b
1*
#2090000
0*
#2095000
b10011 N
b10111110 b
1*
#2100000
0*
#2105000
b10010 N
b10111111 b
1*
#2110000
0*
#2115000
b10001 N
b11000000 b
1*
#2120000
0*
#2125000
b10000 N
b11000001 b
1*
#2130000
0*
#2135000
b1111 N
b11000010 b
1*
#2140000
0*
#2145000
b1110 N
b11000011 b
1*
#2150000
0*
#2155000
b1101 N
b11000100 b
1*
#2160000
0*
#2165000
b1100 N
b11000101 b
1*
#2170000
0*
#2175000
b1011 N
b11000110 b
1*
#2180000
0*
#2185000
b1010 N
b11000111 b
1*
#2190000
0*
#2195000
b1001 N
b11001000 b
1*
#2200000
0*
#2205000
b1000 N
b11001001 b
1*
#2210000
0*
#2215000
b111 N
b11001010 b
1*
#2220000
0*
#2225000
b110 N
b11001011 b
1*
#2230000
0*
#2235000
b101 N
b11001100 b
1*
#2240000
0*
#2245000
b100 N
b11001101 b
1*
#2250000
0*
#2255000
b11 N
b11001110 b
1*
#2260000
0*
#2265000
b10 N
b11001111 b
1*
#2270000
0*
#2275000
b1 N
b11010000 b
1*
#2280000
0*
#2285000
1>
b0 N
b11010001 b
1*
#2290000
0*
#2295000
b11 9
b101 3
1'
b10 V
1%
0>
b10100 N
b11010010 b
1*
#2300000
0*
#2305000
b10011 N
b11010011 b
1*
#2310000
0*
#2315000
b10010 N
b11010100 b
1*
#2320000
0*
#2325000
b10001 N
b11010101 b
1*
#2330000
0*
#2335000
b10000 N
b11010110 b
1*
#2340000
0*
#2345000
b1111 N
b11010111 b
1*
#2350000
0*
#2355000
b1110 N
b11011000 b
1*
#2360000
0*
#2365000
b1101 N
b11011001 b
1*
#2370000
0*
#2375000
b1100 N
b11011010 b
1*
#2380000
0*
#2385000
b1011 N
b11011011 b
1*
#2390000
0*
#2395000
b1010 N
b11011100 b
1*
#2400000
0*
#2405000
b1001 N
b11011101 b
1*
#2410000
0*
#2415000
b1000 N
b11011110 b
1*
#2420000
0*
#2425000
b111 N
b11011111 b
1*
#2430000
0*
#2435000
b110 N
b11100000 b
1*
#2440000
0*
#2445000
b101 N
b11100001 b
1*
#2450000
0*
#2455000
b100 N
b11100010 b
1*
#2460000
0*
#2465000
b11 N
b11100011 b
1*
#2470000
0*
#2475000
b10 N
b11100100 b
1*
#2480000
0*
#2485000
b1 N
b11100101 b
1*
#2490000
0*
#2495000
1>
b0 N
b11100110 b
1*
#2500000
0*
#2505000
0'
b0 V
b100 J
0%
0>
b10100 N
b11100111 b
1*
#2510000
0*
#2515000
b10011 N
b11101000 b
1*
#2520000
0*
#2525000
b10010 N
b11101001 b
1*
#2530000
0*
#2535000
b10001 N
b11101010 b
1*
#2540000
0*
#2545000
b10000 N
b11101011 b
1*
#2550000
0*
#2555000
b1111 N
b11101100 b
1*
#2560000
0*
#2565000
b1110 N
b11101101 b
1*
#2570000
0*
#2575000
b1101 N
b11101110 b
1*
#2580000
0*
#2585000
b1100 N
b11101111 b
1*
#2590000
0*
#2595000
b1011 N
b11110000 b
1*
#2600000
0*
#2605000
b1010 N
b11110001 b
1*
#2610000
0*
#2615000
b1001 N
b11110010 b
1*
#2620000
0*
#2625000
b1000 N
b11110011 b
1*
#2630000
0*
#2635000
b111 N
b11110100 b
1*
#2640000
0*
#2645000
b110 N
b11110101 b
1*
#2650000
0*
#2655000
b101 N
b11110110 b
1*
#2660000
0*
#2665000
b100 N
b11110111 b
1*
#2670000
0*
#2675000
b11 N
b11111000 b
1*
#2680000
0*
#2685000
b10 N
b11111001 b
1*
#2690000
0*
#2695000
b1 N
b11111010 b
1*
#2700000
0*
#2705000
1>
b0 N
b11111011 b
1*
#2710000
0*
#2715000
0!
0$
b1 V
1#
0>
b10100 N
b11111100 b
1*
#2720000
0*
#2725000
b10011 N
b11111101 b
1*
#2730000
0*
#2735000
b10010 N
b11111110 b
1*
#2740000
0*
#2745000
b10001 N
b11111111 b
1*
#2750000
0*
#2755000
b10000 N
b100000000 b
1*
#2760000
0*
#2765000
b1111 N
b100000001 b
1*
#2770000
0*
#2775000
b1110 N
b100000010 b
1*
#2780000
0*
#2785000
b1101 N
b100000011 b
1*
#2790000
0*
#2795000
b1100 N
b100000100 b
1*
#2800000
0*
#2805000
b1011 N
b100000101 b
1*
#2810000
0*
#2815000
b1010 N
b100000110 b
1*
#2820000
0*
#2825000
b1001 N
b100000111 b
1*
#2830000
0*
#2835000
b1000 N
b100001000 b
1*
#2840000
0*
#2845000
b111 N
b100001001 b
1*
#2850000
0*
#2855000
b110 N
b100001010 b
1*
#2860000
0*
#2865000
b101 N
b100001011 b
1*
#2870000
0*
#2875000
b100 N
b100001100 b
1*
#2880000
0*
#2885000
b11 N
b100001101 b
1*
#2890000
0*
#2895000
b10 N
b100001110 b
1*
#2900000
0*
#2905000
b1 N
b100001111 b
1*
#2910000
0*
#2915000
1>
b0 N
b100010000 b
1*
#2920000
0*
#2925000
b100 9
b1010 3
1'
b10 V
1%
0>
b10100 N
b100010001 b
1*
#2930000
0*
#2935000
b10011 N
b100010010 b
1*
#2940000
0*
#2945000
b10010 N
b100010011 b
1*
#2950000
0*
#2955000
b10001 N
b100010100 b
1*
#2960000
0*
#2965000
b10000 N
b100010101 b
1*
#2970000
0*
#2975000
b1111 N
b100010110 b
1*
#2980000
0*
#2985000
b1110 N
b100010111 b
1*
#2990000
0*
#2995000
b1101 N
b100011000 b
1*
#3000000
0*
#3005000
b1100 N
b100011001 b
1*
#3010000
0*
#3015000
b1011 N
b100011010 b
1*
#3020000
0*
#3025000
b1010 N
b100011011 b
1*
#3030000
0*
#3035000
b1001 N
b100011100 b
1*
#3040000
0*
#3045000
b1000 N
b100011101 b
1*
#3050000
0*
#3055000
b111 N
b100011110 b
1*
#3060000
0*
#3065000
b110 N
b100011111 b
1*
#3070000
0*
#3075000
b101 N
b100100000 b
1*
#3080000
0*
#3085000
b100 N
b100100001 b
1*
#3090000
0*
#3095000
b11 N
b100100010 b
1*
#3100000
0*
#3105000
b10 N
b100100011 b
1*
#3110000
0*
#3115000
b1 N
b100100100 b
1*
#3120000
0*
#3125000
1>
b0 N
b100100101 b
1*
#3130000
0*
#3135000
0'
b0 V
b11 J
0%
0>
b10100 N
b100100110 b
1*
#3140000
0*
#3145000
b10011 N
b100100111 b
1*
#3150000
0*
#3155000
b10010 N
b100101000 b
1*
#3160000
0*
#3165000
b10001 N
b100101001 b
1*
#3170000
0*
#3175000
b10000 N
b100101010 b
1*
#3180000
0*
#3185000
b1111 N
b100101011 b
1*
#3190000
0*
#3195000
b1110 N
b100101100 b
1*
#3200000
0*
#3205000
b1101 N
b100101101 b
1*
#3210000
0*
#3215000
b1100 N
b100101110 b
1*
#3220000
0*
#3225000
b1011 N
b100101111 b
1*
#3230000
0*
#3235000
b1010 N
b100110000 b
1*
#3240000
0*
#3245000
b1001 N
b100110001 b
1*
#3250000
0*
#3255000
b1000 N
b100110010 b
1*
#3260000
0*
#3265000
b111 N
b100110011 b
1*
#3270000
0*
#3275000
b110 N
b100110100 b
1*
#3280000
0*
#3285000
b101 N
b100110101 b
1*
#3290000
0*
#3295000
b100 N
b100110110 b
1*
#3300000
0*
#3305000
b11 N
b100110111 b
1*
#3310000
0*
#3315000
b10 N
b100111000 b
1*
#3320000
0*
#3325000
b1 N
b100111001 b
1*
#3330000
0*
#3335000
1>
b0 N
b100111010 b
1*
#3340000
0*
#3345000
b1 V
0>
b10100 N
b100111011 b
1*
#3350000
0*
#3355000
b10011 N
b100111100 b
1*
#3360000
0*
#3365000
b10010 N
b100111101 b
1*
#3370000
0*
#3375000
b10001 N
b100111110 b
1*
#3380000
0*
#3385000
b10000 N
b100111111 b
1*
#3390000
0*
#3395000
b1111 N
b101000000 b
1*
#3400000
0*
#3405000
b1110 N
b101000001 b
1*
#3410000
0*
#3415000
b1101 N
b101000010 b
1*
#3420000
0*
#3425000
b1100 N
b101000011 b
1*
#3430000
0*
#3435000
b1011 N
b101000100 b
1*
#3440000
0*
#3445000
b1010 N
b101000101 b
1*
#3450000
0*
#3455000
b1001 N
b101000110 b
1*
#3460000
0*
#3465000
b1000 N
b101000111 b
1*
#3470000
0*
#3475000
b111 N
b101001000 b
1*
#3480000
0*
#3485000
b110 N
b101001001 b
1*
#3490000
0*
#3495000
b101 N
b101001010 b
1*
#3500000
0*
#3505000
b100 N
b101001011 b
1*
#3510000
0*
#3515000
b11 N
b101001100 b
1*
#3520000
0*
#3525000
b10 N
b101001101 b
1*
#3530000
0*
#3535000
b1 N
b101001110 b
1*
#3540000
0*
#3545000
1>
b0 N
b101001111 b
1*
#3550000
0*
#3555000
b101 9
b10100 3
1'
b10 V
1%
0>
b10100 N
b101010000 b
1*
#3560000
0*
#3565000
b10011 N
b101010001 b
1*
#3570000
0*
#3575000
b10010 N
b101010010 b
1*
#3580000
0*
#3585000
b10001 N
b101010011 b
1*
#3590000
0*
#3595000
b10000 N
b101010100 b
1*
#3600000
0*
#3605000
b1111 N
b101010101 b
1*
#3610000
0*
#3615000
b1110 N
b101010110 b
1*
#3620000
0*
#3625000
b1101 N
b101010111 b
1*
#3630000
0*
#3635000
b1100 N
b101011000 b
1*
#3640000
0*
#3645000
b1011 N
b101011001 b
1*
#3650000
0*
#3655000
b1010 N
b101011010 b
1*
#3660000
0*
#3665000
b1001 N
b101011011 b
1*
#3670000
0*
#3675000
b1000 N
b101011100 b
1*
#3680000
0*
#3685000
b111 N
b101011101 b
1*
#3690000
0*
#3695000
b110 N
b101011110 b
1*
#3700000
0*
#3705000
b101 N
b101011111 b
1*
#3710000
0*
#3715000
b100 N
b101100000 b
1*
#3720000
0*
#3725000
b11 N
b101100001 b
1*
#3730000
0*
#3735000
b10 N
b101100010 b
1*
#3740000
0*
#3745000
b1 N
b101100011 b
1*
#3750000
0*
#3755000
1>
b0 N
b101100100 b
1*
#3760000
0*
#3765000
0'
b0 V
b10 J
0%
0>
b10100 N
b101100101 b
1*
#3770000
0*
#3775000
b10011 N
b101100110 b
1*
#3780000
0*
#3785000
b10010 N
b101100111 b
1*
#3790000
0*
#3795000
b10001 N
b101101000 b
1*
#3800000
0*
#3805000
b10000 N
b101101001 b
1*
#3810000
0*
#3815000
b1111 N
b101101010 b
1*
#3820000
0*
#3825000
b1110 N
b101101011 b
1*
#3830000
0*
#3835000
b1101 N
b101101100 b
1*
#3840000
0*
#3845000
b1100 N
b101101101 b
1*
#3850000
0*
#3855000
b1011 N
b101101110 b
1*
#3860000
0*
#3865000
b1010 N
b101101111 b
1*
#3870000
0*
#3875000
b1001 N
b101110000 b
1*
#3880000
0*
#3885000
b1000 N
b101110001 b
1*
#3890000
0*
#3895000
b111 N
b101110010 b
1*
#3900000
0*
#3905000
b110 N
b101110011 b
1*
#3910000
0*
#3915000
b101 N
b101110100 b
1*
#3920000
0*
#3925000
b100 N
b101110101 b
1*
#3930000
0*
#3935000
b11 N
b101110110 b
1*
#3940000
0*
#3945000
b10 N
b101110111 b
1*
#3950000
0*
#3955000
b1 N
b101111000 b
1*
#3960000
0*
#3965000
1>
b0 N
b101111001 b
1*
#3970000
0*
#3975000
1!
1$
b1 V
0#
0>
b10100 N
b101111010 b
1*
#3980000
0*
#3985000
b10011 N
b101111011 b
1*
#3990000
0*
#3995000
b10010 N
b101111100 b
1*
#4000000
0*
#4005000
b10001 N
b101111101 b
1*
#4010000
0*
#4015000
b10000 N
b101111110 b
1*
#4020000
0*
#4025000
b1111 N
b101111111 b
1*
#4030000
0*
#4035000
b1110 N
b110000000 b
1*
#4040000
0*
#4045000
b1101 N
b110000001 b
1*
#4050000
0*
#4055000
b1100 N
b110000010 b
1*
#4060000
0*
#4065000
b1011 N
b110000011 b
1*
#4070000
0*
#4075000
b1010 N
b110000100 b
1*
#4080000
0*
#4085000
b1001 N
b110000101 b
1*
#4090000
0*
#4095000
b1000 N
b110000110 b
1*
#4100000
0*
#4105000
b111 N
b110000111 b
1*
#4110000
0*
#4115000
b110 N
b110001000 b
1*
#4120000
0*
#4125000
b101 N
b110001001 b
1*
#4130000
0*
#4135000
b100 N
b110001010 b
1*
#4140000
0*
#4145000
b11 N
b110001011 b
1*
#4150000
0*
#4155000
b10 N
b110001100 b
1*
#4160000
0*
#4165000
b1 N
b110001101 b
1*
#4170000
0*
#4175000
1>
b0 N
b110001110 b
1*
#4180000
0*
#4185000
b110 9
b101001 3
1'
b10 V
1%
0>
b10100 N
b110001111 b
1*
#4190000
0*
#4195000
b10011 N
b110010000 b
1*
#4200000
0*
#4205000
b10010 N
b110010001 b
1*
#4210000
0*
#4215000
b10001 N
b110010010 b
1*
#4220000
0*
#4225000
b10000 N
b110010011 b
1*
#4230000
0*
#4235000
b1111 N
b110010100 b
1*
#4240000
0*
#4245000
b1110 N
b110010101 b
1*
#4250000
0*
#4255000
b1101 N
b110010110 b
1*
#4260000
0*
#4265000
b1100 N
b110010111 b
1*
#4270000
0*
#4275000
b1011 N
b110011000 b
1*
#4280000
0*
#4285000
b1010 N
b110011001 b
1*
#4290000
0*
#4295000
b1001 N
b110011010 b
1*
#4300000
0*
#4305000
b1000 N
b110011011 b
1*
#4310000
0*
#4315000
b111 N
b110011100 b
1*
#4320000
0*
#4325000
b110 N
b110011101 b
1*
#4330000
0*
#4335000
b101 N
b110011110 b
1*
#4340000
0*
#4345000
b100 N
b110011111 b
1*
#4350000
0*
#4355000
b11 N
b110100000 b
1*
#4360000
0*
#4365000
b10 N
b110100001 b
1*
#4370000
0*
#4375000
b1 N
b110100010 b
1*
#4380000
0*
#4385000
1>
b0 N
b110100011 b
1*
#4390000
0*
#4395000
0'
b0 V
b1 J
0%
0>
b10100 N
b110100100 b
1*
#4400000
0*
#4405000
b10011 N
b110100101 b
1*
#4410000
0*
#4415000
b10010 N
b110100110 b
1*
#4420000
0*
#4425000
b10001 N
b110100111 b
1*
#4430000
0*
#4435000
b10000 N
b110101000 b
1*
#4440000
0*
#4445000
b1111 N
b110101001 b
1*
#4450000
0*
#4455000
b1110 N
b110101010 b
1*
#4460000
0*
